(['/Users/louie.gu/Desktop/IST/Python/PyQtictactoe/src/main/python/main.py'],
 ['/Users/louie.gu/Desktop/IST/Python/PyQtictactoe/src/main/python',
  '/Users/louie.gu/Desktop/IST/Python/PyQtictactoe/target/PyInstaller'],
 ['codecs'],
 ['/Users/louie.gu/Desktop/IST/Python/PyQtictactoe/venv/lib/python3.6/site-packages/fbs/freeze/hooks'],
 [],
 ['/Users/louie.gu/Desktop/IST/Python/PyQtictactoe/target/PyInstaller/fbs_pyinstaller_hook.py'],
 False,
 False,
 '3.6.7 (v3.6.7:6ec5cf24b7, Oct 20 2018, 03:02:14) \n'
 '[GCC 4.2.1 Compatible Apple LLVM 6.0 (clang-600.0.57)]',
 [('fbs_pyinstaller_hook',
   '/Users/louie.gu/Desktop/IST/Python/PyQtictactoe/target/PyInstaller/fbs_pyinstaller_hook.py',
   'PYSOURCE'),
  ('pyi_rth_qt5',
   '/Users/louie.gu/Desktop/IST/Python/PyQtictactoe/venv/lib/python3.6/site-packages/PyInstaller/loader/rthooks/pyi_rth_qt5.py',
   'PYSOURCE'),
  ('main',
   '/Users/louie.gu/Desktop/IST/Python/PyQtictactoe/src/main/python/main.py',
   'PYSOURCE')],
 [('posixpath',
   '/Library/Frameworks/Python.framework/Versions/3.6/lib/python3.6/posixpath.py',
   'PYMODULE'),
  ('_strptime',
   '/Library/Frameworks/Python.framework/Versions/3.6/lib/python3.6/_strptime.py',
   'PYMODULE'),
  ('datetime',
   '/Library/Frameworks/Python.framework/Versions/3.6/lib/python3.6/datetime.py',
   'PYMODULE'),
  ('stringprep',
   '/Library/Frameworks/Python.framework/Versions/3.6/lib/python3.6/stringprep.py',
   'PYMODULE'),
  ('_compat_pickle',
   '/Library/Frameworks/Python.framework/Versions/3.6/lib/python3.6/_compat_pickle.py',
   'PYMODULE'),
  ('pickle',
   '/Library/Frameworks/Python.framework/Versions/3.6/lib/python3.6/pickle.py',
   'PYMODULE'),
  ('tracemalloc',
   '/Library/Frameworks/Python.framework/Versions/3.6/lib/python3.6/tracemalloc.py',
   'PYMODULE'),
  ('__future__',
   '/Library/Frameworks/Python.framework/Versions/3.6/lib/python3.6/__future__.py',
   'PYMODULE'),
  ('argparse',
   '/Library/Frameworks/Python.framework/Versions/3.6/lib/python3.6/argparse.py',
   'PYMODULE'),
  ('difflib',
   '/Library/Frameworks/Python.framework/Versions/3.6/lib/python3.6/difflib.py',
   'PYMODULE'),
  ('ast',
   '/Library/Frameworks/Python.framework/Versions/3.6/lib/python3.6/ast.py',
   'PYMODULE'),
  ('inspect',
   '/Library/Frameworks/Python.framework/Versions/3.6/lib/python3.6/inspect.py',
   'PYMODULE'),
  ('genericpath',
   '/Library/Frameworks/Python.framework/Versions/3.6/lib/python3.6/genericpath.py',
   'PYMODULE'),
  ('ntpath',
   '/Library/Frameworks/Python.framework/Versions/3.6/lib/python3.6/ntpath.py',
   'PYMODULE'),
  ('os',
   '/Library/Frameworks/Python.framework/Versions/3.6/lib/python3.6/os.py',
   'PYMODULE'),
  ('cmd',
   '/Library/Frameworks/Python.framework/Versions/3.6/lib/python3.6/cmd.py',
   'PYMODULE'),
  ('bdb',
   '/Library/Frameworks/Python.framework/Versions/3.6/lib/python3.6/bdb.py',
   'PYMODULE'),
  ('opcode',
   '/Library/Frameworks/Python.framework/Versions/3.6/lib/python3.6/opcode.py',
   'PYMODULE'),
  ('dis',
   '/Library/Frameworks/Python.framework/Versions/3.6/lib/python3.6/dis.py',
   'PYMODULE'),
  ('codeop',
   '/Library/Frameworks/Python.framework/Versions/3.6/lib/python3.6/codeop.py',
   'PYMODULE'),
  ('code',
   '/Library/Frameworks/Python.framework/Versions/3.6/lib/python3.6/code.py',
   'PYMODULE'),
  ('glob',
   '/Library/Frameworks/Python.framework/Versions/3.6/lib/python3.6/glob.py',
   'PYMODULE'),
  ('shlex',
   '/Library/Frameworks/Python.framework/Versions/3.6/lib/python3.6/shlex.py',
   'PYMODULE'),
  ('importlib._bootstrap',
   '/Library/Frameworks/Python.framework/Versions/3.6/lib/python3.6/importlib/_bootstrap.py',
   'PYMODULE'),
  ('importlib._bootstrap_external',
   '/Library/Frameworks/Python.framework/Versions/3.6/lib/python3.6/importlib/_bootstrap_external.py',
   'PYMODULE'),
  ('importlib.machinery',
   '/Library/Frameworks/Python.framework/Versions/3.6/lib/python3.6/importlib/machinery.py',
   'PYMODULE'),
  ('importlib.util',
   '/Library/Frameworks/Python.framework/Versions/3.6/lib/python3.6/importlib/util.py',
   'PYMODULE'),
  ('importlib.abc',
   '/Library/Frameworks/Python.framework/Versions/3.6/lib/python3.6/importlib/abc.py',
   'PYMODULE'),
  ('importlib',
   '/Library/Frameworks/Python.framework/Versions/3.6/lib/python3.6/importlib/__init__.py',
   'PYMODULE'),
  ('pkgutil',
   '/Library/Frameworks/Python.framework/Versions/3.6/lib/python3.6/pkgutil.py',
   'PYMODULE'),
  ('xml',
   '/Library/Frameworks/Python.framework/Versions/3.6/lib/python3.6/xml/__init__.py',
   'PYMODULE'),
  ('xml.sax.expatreader',
   '/Library/Frameworks/Python.framework/Versions/3.6/lib/python3.6/xml/sax/expatreader.py',
   'PYMODULE'),
  ('xml.sax.saxutils',
   '/Library/Frameworks/Python.framework/Versions/3.6/lib/python3.6/xml/sax/saxutils.py',
   'PYMODULE'),
  ('urllib.request',
   '/Library/Frameworks/Python.framework/Versions/3.6/lib/python3.6/urllib/request.py',
   'PYMODULE'),
  ('getpass',
   '/Library/Frameworks/Python.framework/Versions/3.6/lib/python3.6/getpass.py',
   'PYMODULE'),
  ('nturl2path',
   '/Library/Frameworks/Python.framework/Versions/3.6/lib/python3.6/nturl2path.py',
   'PYMODULE'),
  ('ftplib',
   '/Library/Frameworks/Python.framework/Versions/3.6/lib/python3.6/ftplib.py',
   'PYMODULE'),
  ('netrc',
   '/Library/Frameworks/Python.framework/Versions/3.6/lib/python3.6/netrc.py',
   'PYMODULE'),
  ('http.cookiejar',
   '/Library/Frameworks/Python.framework/Versions/3.6/lib/python3.6/http/cookiejar.py',
   'PYMODULE'),
  ('urllib.response',
   '/Library/Frameworks/Python.framework/Versions/3.6/lib/python3.6/urllib/response.py',
   'PYMODULE'),
  ('urllib.error',
   '/Library/Frameworks/Python.framework/Versions/3.6/lib/python3.6/urllib/error.py',
   'PYMODULE'),
  ('xml.sax',
   '/Library/Frameworks/Python.framework/Versions/3.6/lib/python3.6/xml/sax/__init__.py',
   'PYMODULE'),
  ('xml.sax.handler',
   '/Library/Frameworks/Python.framework/Versions/3.6/lib/python3.6/xml/sax/handler.py',
   'PYMODULE'),
  ('xml.sax._exceptions',
   '/Library/Frameworks/Python.framework/Versions/3.6/lib/python3.6/xml/sax/_exceptions.py',
   'PYMODULE'),
  ('xml.sax.xmlreader',
   '/Library/Frameworks/Python.framework/Versions/3.6/lib/python3.6/xml/sax/xmlreader.py',
   'PYMODULE'),
  ('xml.parsers',
   '/Library/Frameworks/Python.framework/Versions/3.6/lib/python3.6/xml/parsers/__init__.py',
   'PYMODULE'),
  ('xml.parsers.expat',
   '/Library/Frameworks/Python.framework/Versions/3.6/lib/python3.6/xml/parsers/expat.py',
   'PYMODULE'),
  ('plistlib',
   '/Library/Frameworks/Python.framework/Versions/3.6/lib/python3.6/plistlib.py',
   'PYMODULE'),
  ('platform',
   '/Library/Frameworks/Python.framework/Versions/3.6/lib/python3.6/platform.py',
   'PYMODULE'),
  ('token',
   '/Library/Frameworks/Python.framework/Versions/3.6/lib/python3.6/token.py',
   'PYMODULE'),
  ('tokenize',
   '/Library/Frameworks/Python.framework/Versions/3.6/lib/python3.6/tokenize.py',
   'PYMODULE'),
  ('urllib.parse',
   '/Library/Frameworks/Python.framework/Versions/3.6/lib/python3.6/urllib/parse.py',
   'PYMODULE'),
  ('tempfile',
   '/Library/Frameworks/Python.framework/Versions/3.6/lib/python3.6/tempfile.py',
   'PYMODULE'),
  ('subprocess',
   '/Library/Frameworks/Python.framework/Versions/3.6/lib/python3.6/subprocess.py',
   'PYMODULE'),
  ('tty',
   '/Library/Frameworks/Python.framework/Versions/3.6/lib/python3.6/tty.py',
   'PYMODULE'),
  ('pydoc_data',
   '/Library/Frameworks/Python.framework/Versions/3.6/lib/python3.6/pydoc_data/__init__.py',
   'PYMODULE'),
  ('pydoc_data.topics',
   '/Library/Frameworks/Python.framework/Versions/3.6/lib/python3.6/pydoc_data/topics.py',
   'PYMODULE'),
  ('textwrap',
   '/Library/Frameworks/Python.framework/Versions/3.6/lib/python3.6/textwrap.py',
   'PYMODULE'),
  ('html.entities',
   '/Library/Frameworks/Python.framework/Versions/3.6/lib/python3.6/html/entities.py',
   'PYMODULE'),
  ('html',
   '/Library/Frameworks/Python.framework/Versions/3.6/lib/python3.6/html/__init__.py',
   'PYMODULE'),
  ('ipaddress',
   '/Library/Frameworks/Python.framework/Versions/3.6/lib/python3.6/ipaddress.py',
   'PYMODULE'),
  ('ssl',
   '/Library/Frameworks/Python.framework/Versions/3.6/lib/python3.6/ssl.py',
   'PYMODULE'),
  ('http.client',
   '/Library/Frameworks/Python.framework/Versions/3.6/lib/python3.6/http/client.py',
   'PYMODULE'),
  ('mimetypes',
   '/Library/Frameworks/Python.framework/Versions/3.6/lib/python3.6/mimetypes.py',
   'PYMODULE'),
  ('socketserver',
   '/Library/Frameworks/Python.framework/Versions/3.6/lib/python3.6/socketserver.py',
   'PYMODULE'),
  ('http',
   '/Library/Frameworks/Python.framework/Versions/3.6/lib/python3.6/http/__init__.py',
   'PYMODULE'),
  ('http.server',
   '/Library/Frameworks/Python.framework/Versions/3.6/lib/python3.6/http/server.py',
   'PYMODULE'),
  ('optparse',
   '/Library/Frameworks/Python.framework/Versions/3.6/lib/python3.6/optparse.py',
   'PYMODULE'),
  ('uu',
   '/Library/Frameworks/Python.framework/Versions/3.6/lib/python3.6/uu.py',
   'PYMODULE'),
  ('quopri',
   '/Library/Frameworks/Python.framework/Versions/3.6/lib/python3.6/quopri.py',
   'PYMODULE'),
  ('email.feedparser',
   '/Library/Frameworks/Python.framework/Versions/3.6/lib/python3.6/email/feedparser.py',
   'PYMODULE'),
  ('email.parser',
   '/Library/Frameworks/Python.framework/Versions/3.6/lib/python3.6/email/parser.py',
   'PYMODULE'),
  ('email',
   '/Library/Frameworks/Python.framework/Versions/3.6/lib/python3.6/email/__init__.py',
   'PYMODULE'),
  ('calendar',
   '/Library/Frameworks/Python.framework/Versions/3.6/lib/python3.6/calendar.py',
   'PYMODULE'),
  ('email._parseaddr',
   '/Library/Frameworks/Python.framework/Versions/3.6/lib/python3.6/email/_parseaddr.py',
   'PYMODULE'),
  ('email.utils',
   '/Library/Frameworks/Python.framework/Versions/3.6/lib/python3.6/email/utils.py',
   'PYMODULE'),
  ('email.errors',
   '/Library/Frameworks/Python.framework/Versions/3.6/lib/python3.6/email/errors.py',
   'PYMODULE'),
  ('email.header',
   '/Library/Frameworks/Python.framework/Versions/3.6/lib/python3.6/email/header.py',
   'PYMODULE'),
  ('email._policybase',
   '/Library/Frameworks/Python.framework/Versions/3.6/lib/python3.6/email/_policybase.py',
   'PYMODULE'),
  ('email.base64mime',
   '/Library/Frameworks/Python.framework/Versions/3.6/lib/python3.6/email/base64mime.py',
   'PYMODULE'),
  ('email.encoders',
   '/Library/Frameworks/Python.framework/Versions/3.6/lib/python3.6/email/encoders.py',
   'PYMODULE'),
  ('email.charset',
   '/Library/Frameworks/Python.framework/Versions/3.6/lib/python3.6/email/charset.py',
   'PYMODULE'),
  ('base64',
   '/Library/Frameworks/Python.framework/Versions/3.6/lib/python3.6/base64.py',
   'PYMODULE'),
  ('email._encoded_words',
   '/Library/Frameworks/Python.framework/Versions/3.6/lib/python3.6/email/_encoded_words.py',
   'PYMODULE'),
  ('hashlib',
   '/Library/Frameworks/Python.framework/Versions/3.6/lib/python3.6/hashlib.py',
   'PYMODULE'),
  ('bisect',
   '/Library/Frameworks/Python.framework/Versions/3.6/lib/python3.6/bisect.py',
   'PYMODULE'),
  ('email.generator',
   '/Library/Frameworks/Python.framework/Versions/3.6/lib/python3.6/email/generator.py',
   'PYMODULE'),
  ('email.iterators',
   '/Library/Frameworks/Python.framework/Versions/3.6/lib/python3.6/email/iterators.py',
   'PYMODULE'),
  ('urllib',
   '/Library/Frameworks/Python.framework/Versions/3.6/lib/python3.6/urllib/__init__.py',
   'PYMODULE'),
  ('email._header_value_parser',
   '/Library/Frameworks/Python.framework/Versions/3.6/lib/python3.6/email/_header_value_parser.py',
   'PYMODULE'),
  ('email.headerregistry',
   '/Library/Frameworks/Python.framework/Versions/3.6/lib/python3.6/email/headerregistry.py',
   'PYMODULE'),
  ('email.quoprimime',
   '/Library/Frameworks/Python.framework/Versions/3.6/lib/python3.6/email/quoprimime.py',
   'PYMODULE'),
  ('email.contentmanager',
   '/Library/Frameworks/Python.framework/Versions/3.6/lib/python3.6/email/contentmanager.py',
   'PYMODULE'),
  ('email.policy',
   '/Library/Frameworks/Python.framework/Versions/3.6/lib/python3.6/email/policy.py',
   'PYMODULE'),
  ('email.message',
   '/Library/Frameworks/Python.framework/Versions/3.6/lib/python3.6/email/message.py',
   'PYMODULE'),
  ('stat',
   '/Library/Frameworks/Python.framework/Versions/3.6/lib/python3.6/stat.py',
   'PYMODULE'),
  ('bz2',
   '/Library/Frameworks/Python.framework/Versions/3.6/lib/python3.6/bz2.py',
   'PYMODULE'),
  ('lzma',
   '/Library/Frameworks/Python.framework/Versions/3.6/lib/python3.6/lzma.py',
   'PYMODULE'),
  ('_compression',
   '/Library/Frameworks/Python.framework/Versions/3.6/lib/python3.6/_compression.py',
   'PYMODULE'),
  ('gzip',
   '/Library/Frameworks/Python.framework/Versions/3.6/lib/python3.6/gzip.py',
   'PYMODULE'),
  ('tarfile',
   '/Library/Frameworks/Python.framework/Versions/3.6/lib/python3.6/tarfile.py',
   'PYMODULE'),
  ('_dummy_thread',
   '/Library/Frameworks/Python.framework/Versions/3.6/lib/python3.6/_dummy_thread.py',
   'PYMODULE'),
  ('dummy_threading',
   '/Library/Frameworks/Python.framework/Versions/3.6/lib/python3.6/dummy_threading.py',
   'PYMODULE'),
  ('py_compile',
   '/Library/Frameworks/Python.framework/Versions/3.6/lib/python3.6/py_compile.py',
   'PYMODULE'),
  ('zipfile',
   '/Library/Frameworks/Python.framework/Versions/3.6/lib/python3.6/zipfile.py',
   'PYMODULE'),
  ('shutil',
   '/Library/Frameworks/Python.framework/Versions/3.6/lib/python3.6/shutil.py',
   'PYMODULE'),
  ('selectors',
   '/Library/Frameworks/Python.framework/Versions/3.6/lib/python3.6/selectors.py',
   'PYMODULE'),
  ('socket',
   '/Library/Frameworks/Python.framework/Versions/3.6/lib/python3.6/socket.py',
   'PYMODULE'),
  ('webbrowser',
   '/Library/Frameworks/Python.framework/Versions/3.6/lib/python3.6/webbrowser.py',
   'PYMODULE'),
  ('pydoc',
   '/Library/Frameworks/Python.framework/Versions/3.6/lib/python3.6/pydoc.py',
   'PYMODULE'),
  ('copy',
   '/Library/Frameworks/Python.framework/Versions/3.6/lib/python3.6/copy.py',
   'PYMODULE'),
  ('struct',
   '/Library/Frameworks/Python.framework/Versions/3.6/lib/python3.6/struct.py',
   'PYMODULE'),
  ('gettext',
   '/Library/Frameworks/Python.framework/Versions/3.6/lib/python3.6/gettext.py',
   'PYMODULE'),
  ('getopt',
   '/Library/Frameworks/Python.framework/Versions/3.6/lib/python3.6/getopt.py',
   'PYMODULE'),
  ('pdb',
   '/Library/Frameworks/Python.framework/Versions/3.6/lib/python3.6/pdb.py',
   'PYMODULE'),
  ('unittest.util',
   '/Library/Frameworks/Python.framework/Versions/3.6/lib/python3.6/unittest/util.py',
   'PYMODULE'),
  ('unittest.result',
   '/Library/Frameworks/Python.framework/Versions/3.6/lib/python3.6/unittest/result.py',
   'PYMODULE'),
  ('string',
   '/Library/Frameworks/Python.framework/Versions/3.6/lib/python3.6/string.py',
   'PYMODULE'),
  ('_threading_local',
   '/Library/Frameworks/Python.framework/Versions/3.6/lib/python3.6/_threading_local.py',
   'PYMODULE'),
  ('threading',
   '/Library/Frameworks/Python.framework/Versions/3.6/lib/python3.6/threading.py',
   'PYMODULE'),
  ('logging',
   '/Library/Frameworks/Python.framework/Versions/3.6/lib/python3.6/logging/__init__.py',
   'PYMODULE'),
  ('pprint',
   '/Library/Frameworks/Python.framework/Versions/3.6/lib/python3.6/pprint.py',
   'PYMODULE'),
  ('contextlib',
   '/Library/Frameworks/Python.framework/Versions/3.6/lib/python3.6/contextlib.py',
   'PYMODULE'),
  ('unittest.case',
   '/Library/Frameworks/Python.framework/Versions/3.6/lib/python3.6/unittest/case.py',
   'PYMODULE'),
  ('unittest.suite',
   '/Library/Frameworks/Python.framework/Versions/3.6/lib/python3.6/unittest/suite.py',
   'PYMODULE'),
  ('fnmatch',
   '/Library/Frameworks/Python.framework/Versions/3.6/lib/python3.6/fnmatch.py',
   'PYMODULE'),
  ('unittest.loader',
   '/Library/Frameworks/Python.framework/Versions/3.6/lib/python3.6/unittest/loader.py',
   'PYMODULE'),
  ('unittest.runner',
   '/Library/Frameworks/Python.framework/Versions/3.6/lib/python3.6/unittest/runner.py',
   'PYMODULE'),
  ('unittest.main',
   '/Library/Frameworks/Python.framework/Versions/3.6/lib/python3.6/unittest/main.py',
   'PYMODULE'),
  ('signal',
   '/Library/Frameworks/Python.framework/Versions/3.6/lib/python3.6/signal.py',
   'PYMODULE'),
  ('unittest.signals',
   '/Library/Frameworks/Python.framework/Versions/3.6/lib/python3.6/unittest/signals.py',
   'PYMODULE'),
  ('unittest',
   '/Library/Frameworks/Python.framework/Versions/3.6/lib/python3.6/unittest/__init__.py',
   'PYMODULE'),
  ('doctest',
   '/Library/Frameworks/Python.framework/Versions/3.6/lib/python3.6/doctest.py',
   'PYMODULE'),
  ('game_ui',
   '/Users/louie.gu/Desktop/IST/Python/PyQtictactoe/src/main/python/game_ui.py',
   'PYMODULE'),
  ('PyQt5.uic',
   '/Users/louie.gu/Desktop/IST/Python/PyQtictactoe/venv/lib/python3.6/site-packages/PyQt5/uic/__init__.py',
   'PYMODULE'),
  ('PyQt5.uic.objcreator',
   '/Users/louie.gu/Desktop/IST/Python/PyQtictactoe/venv/lib/python3.6/site-packages/PyQt5/uic/objcreator.py',
   'PYMODULE'),
  ('PyQt5.uic.exceptions',
   '/Users/louie.gu/Desktop/IST/Python/PyQtictactoe/venv/lib/python3.6/site-packages/PyQt5/uic/exceptions.py',
   'PYMODULE'),
  ('PyQt5.uic.Loader.loader',
   '/Users/louie.gu/Desktop/IST/Python/PyQtictactoe/venv/lib/python3.6/site-packages/PyQt5/uic/Loader/loader.py',
   'PYMODULE'),
  ('PyQt5.uic.Loader',
   '/Users/louie.gu/Desktop/IST/Python/PyQtictactoe/venv/lib/python3.6/site-packages/PyQt5/uic/Loader/__init__.py',
   'PYMODULE'),
  ('PyQt5.uic.Loader.qobjectcreator',
   '/Users/louie.gu/Desktop/IST/Python/PyQtictactoe/venv/lib/python3.6/site-packages/PyQt5/uic/Loader/qobjectcreator.py',
   'PYMODULE'),
  ('PyQt5.uic.uiparser',
   '/Users/louie.gu/Desktop/IST/Python/PyQtictactoe/venv/lib/python3.6/site-packages/PyQt5/uic/uiparser.py',
   'PYMODULE'),
  ('PyQt5.uic.properties',
   '/Users/louie.gu/Desktop/IST/Python/PyQtictactoe/venv/lib/python3.6/site-packages/PyQt5/uic/properties.py',
   'PYMODULE'),
  ('PyQt5.uic.port_v3.ascii_upper',
   '/Users/louie.gu/Desktop/IST/Python/PyQtictactoe/venv/lib/python3.6/site-packages/PyQt5/uic/port_v3/ascii_upper.py',
   'PYMODULE'),
  ('PyQt5.uic.port_v3',
   '/Users/louie.gu/Desktop/IST/Python/PyQtictactoe/venv/lib/python3.6/site-packages/PyQt5/uic/port_v3/__init__.py',
   'PYMODULE'),
  ('PyQt5.uic.icon_cache',
   '/Users/louie.gu/Desktop/IST/Python/PyQtictactoe/venv/lib/python3.6/site-packages/PyQt5/uic/icon_cache.py',
   'PYMODULE'),
  ('xml.etree.ElementTree',
   '/Library/Frameworks/Python.framework/Versions/3.6/lib/python3.6/xml/etree/ElementTree.py',
   'PYMODULE'),
  ('xml.etree.ElementInclude',
   '/Library/Frameworks/Python.framework/Versions/3.6/lib/python3.6/xml/etree/ElementInclude.py',
   'PYMODULE'),
  ('xml.etree.cElementTree',
   '/Library/Frameworks/Python.framework/Versions/3.6/lib/python3.6/xml/etree/cElementTree.py',
   'PYMODULE'),
  ('xml.etree.ElementPath',
   '/Library/Frameworks/Python.framework/Versions/3.6/lib/python3.6/xml/etree/ElementPath.py',
   'PYMODULE'),
  ('xml.etree',
   '/Library/Frameworks/Python.framework/Versions/3.6/lib/python3.6/xml/etree/__init__.py',
   'PYMODULE'),
  ('PyQt5.uic.port_v2.string_io',
   '/Users/louie.gu/Desktop/IST/Python/PyQtictactoe/venv/lib/python3.6/site-packages/PyQt5/uic/port_v2/string_io.py',
   'PYMODULE'),
  ('PyQt5.uic.port_v2',
   '/Users/louie.gu/Desktop/IST/Python/PyQtictactoe/venv/lib/python3.6/site-packages/PyQt5/uic/port_v2/__init__.py',
   'PYMODULE'),
  ('PyQt5.uic.port_v3.string_io',
   '/Users/louie.gu/Desktop/IST/Python/PyQtictactoe/venv/lib/python3.6/site-packages/PyQt5/uic/port_v3/string_io.py',
   'PYMODULE'),
  ('PyQt5.uic.Compiler.compiler',
   '/Users/louie.gu/Desktop/IST/Python/PyQtictactoe/venv/lib/python3.6/site-packages/PyQt5/uic/Compiler/compiler.py',
   'PYMODULE'),
  ('PyQt5.uic.Compiler.qobjectcreator',
   '/Users/louie.gu/Desktop/IST/Python/PyQtictactoe/venv/lib/python3.6/site-packages/PyQt5/uic/Compiler/qobjectcreator.py',
   'PYMODULE'),
  ('PyQt5.uic.port_v2.as_string',
   '/Users/louie.gu/Desktop/IST/Python/PyQtictactoe/venv/lib/python3.6/site-packages/PyQt5/uic/port_v2/as_string.py',
   'PYMODULE'),
  ('PyQt5.uic.port_v3.as_string',
   '/Users/louie.gu/Desktop/IST/Python/PyQtictactoe/venv/lib/python3.6/site-packages/PyQt5/uic/port_v3/as_string.py',
   'PYMODULE'),
  ('PyQt5.uic.Compiler.qtproxies',
   '/Users/louie.gu/Desktop/IST/Python/PyQtictactoe/venv/lib/python3.6/site-packages/PyQt5/uic/Compiler/qtproxies.py',
   'PYMODULE'),
  ('PyQt5.uic.port_v2.proxy_base',
   '/Users/louie.gu/Desktop/IST/Python/PyQtictactoe/venv/lib/python3.6/site-packages/PyQt5/uic/port_v2/proxy_base.py',
   'PYMODULE'),
  ('PyQt5.uic.Compiler.proxy_metaclass',
   '/Users/louie.gu/Desktop/IST/Python/PyQtictactoe/venv/lib/python3.6/site-packages/PyQt5/uic/Compiler/proxy_metaclass.py',
   'PYMODULE'),
  ('PyQt5.uic.port_v3.proxy_base',
   '/Users/louie.gu/Desktop/IST/Python/PyQtictactoe/venv/lib/python3.6/site-packages/PyQt5/uic/port_v3/proxy_base.py',
   'PYMODULE'),
  ('PyQt5.uic.Compiler.misc',
   '/Users/louie.gu/Desktop/IST/Python/PyQtictactoe/venv/lib/python3.6/site-packages/PyQt5/uic/Compiler/misc.py',
   'PYMODULE'),
  ('PyQt5.uic.Compiler.indenter',
   '/Users/louie.gu/Desktop/IST/Python/PyQtictactoe/venv/lib/python3.6/site-packages/PyQt5/uic/Compiler/indenter.py',
   'PYMODULE'),
  ('PyQt5.uic.Compiler',
   '/Users/louie.gu/Desktop/IST/Python/PyQtictactoe/venv/lib/python3.6/site-packages/PyQt5/uic/Compiler/__init__.py',
   'PYMODULE'),
  ('PyQt5',
   '/Users/louie.gu/Desktop/IST/Python/PyQtictactoe/venv/lib/python3.6/site-packages/PyQt5/__init__.py',
   'PYMODULE'),
  ('fbs_runtime.application_context.PyQt5',
   '/Users/louie.gu/Desktop/IST/Python/PyQtictactoe/venv/lib/python3.6/site-packages/fbs_runtime/application_context/PyQt5.py',
   'PYMODULE'),
  ('fbs_runtime.application_context',
   '/Users/louie.gu/Desktop/IST/Python/PyQtictactoe/venv/lib/python3.6/site-packages/fbs_runtime/application_context/__init__.py',
   'PYMODULE'),
  ('fbs_runtime.licensing',
   '/Users/louie.gu/Desktop/IST/Python/PyQtictactoe/venv/lib/python3.6/site-packages/fbs_runtime/licensing.py',
   'PYMODULE'),
  ('json',
   '/Library/Frameworks/Python.framework/Versions/3.6/lib/python3.6/json/__init__.py',
   'PYMODULE'),
  ('json.encoder',
   '/Library/Frameworks/Python.framework/Versions/3.6/lib/python3.6/json/encoder.py',
   'PYMODULE'),
  ('json.decoder',
   '/Library/Frameworks/Python.framework/Versions/3.6/lib/python3.6/json/decoder.py',
   'PYMODULE'),
  ('json.scanner',
   '/Library/Frameworks/Python.framework/Versions/3.6/lib/python3.6/json/scanner.py',
   'PYMODULE'),
  ('fbs_runtime.platform',
   '/Users/louie.gu/Desktop/IST/Python/PyQtictactoe/venv/lib/python3.6/site-packages/fbs_runtime/platform.py',
   'PYMODULE'),
  ('fbs_runtime.excepthook',
   '/Users/louie.gu/Desktop/IST/Python/PyQtictactoe/venv/lib/python3.6/site-packages/fbs_runtime/excepthook/__init__.py',
   'PYMODULE'),
  ('fbs_runtime._signal',
   '/Users/louie.gu/Desktop/IST/Python/PyQtictactoe/venv/lib/python3.6/site-packages/fbs_runtime/_signal.py',
   'PYMODULE'),
  ('fbs_runtime._resources',
   '/Users/louie.gu/Desktop/IST/Python/PyQtictactoe/venv/lib/python3.6/site-packages/fbs_runtime/_resources.py',
   'PYMODULE'),
  ('fbs_runtime._source',
   '/Users/louie.gu/Desktop/IST/Python/PyQtictactoe/venv/lib/python3.6/site-packages/fbs_runtime/_source.py',
   'PYMODULE'),
  ('pathlib',
   '/Library/Frameworks/Python.framework/Versions/3.6/lib/python3.6/pathlib.py',
   'PYMODULE'),
  ('fbs_runtime._settings',
   '/Users/louie.gu/Desktop/IST/Python/PyQtictactoe/venv/lib/python3.6/site-packages/fbs_runtime/_settings.py',
   'PYMODULE'),
  ('fbs_runtime._fbs',
   '/Users/louie.gu/Desktop/IST/Python/PyQtictactoe/venv/lib/python3.6/site-packages/fbs_runtime/_fbs.py',
   'PYMODULE'),
  ('fbs_runtime._frozen',
   '/Users/louie.gu/Desktop/IST/Python/PyQtictactoe/venv/lib/python3.6/site-packages/fbs_runtime/_frozen.py',
   'PYMODULE'),
  ('fbs_runtime._state',
   '/Users/louie.gu/Desktop/IST/Python/PyQtictactoe/venv/lib/python3.6/site-packages/fbs_runtime/_state.py',
   'PYMODULE'),
  ('fbs_runtime',
   '/Users/louie.gu/Desktop/IST/Python/PyQtictactoe/venv/lib/python3.6/site-packages/fbs_runtime/__init__.py',
   'PYMODULE'),
  ('qdarkstyle',
   '/Users/louie.gu/Desktop/IST/Python/PyQtictactoe/venv/lib/python3.6/site-packages/qdarkstyle/__init__.py',
   'PYMODULE'),
  ('qdarkstyle.style_rc',
   '/Users/louie.gu/Desktop/IST/Python/PyQtictactoe/venv/lib/python3.6/site-packages/qdarkstyle/style_rc.py',
   'PYMODULE'),
  ('qtpy',
   '/Users/louie.gu/Desktop/IST/Python/PyQtictactoe/venv/lib/python3.6/site-packages/qtpy/__init__.py',
   'PYMODULE'),
  ('qtpy._version',
   '/Users/louie.gu/Desktop/IST/Python/PyQtictactoe/venv/lib/python3.6/site-packages/qtpy/_version.py',
   'PYMODULE'),
  ('distutils.version',
   '/Library/Frameworks/Python.framework/Versions/3.6/lib/python3.6/distutils/version.py',
   'PYMODULE'),
  ('distutils',
   '/Library/Frameworks/Python.framework/Versions/3.6/lib/python3.6/distutils/__init__.py',
   'PYMODULE'),
  ('qtpy.QtGui',
   '/Users/louie.gu/Desktop/IST/Python/PyQtictactoe/venv/lib/python3.6/site-packages/qtpy/QtGui.py',
   'PYMODULE'),
  ('qtpy.QtCore',
   '/Users/louie.gu/Desktop/IST/Python/PyQtictactoe/venv/lib/python3.6/site-packages/qtpy/QtCore.py',
   'PYMODULE'),
  ('qdarkstyle.palette',
   '/Users/louie.gu/Desktop/IST/Python/PyQtictactoe/venv/lib/python3.6/site-packages/qdarkstyle/palette.py',
   'PYMODULE'),
  ('minimax',
   '/Users/louie.gu/Desktop/IST/Python/PyQtictactoe/src/main/python/minimax.py',
   'PYMODULE'),
  ('random',
   '/Library/Frameworks/Python.framework/Versions/3.6/lib/python3.6/random.py',
   'PYMODULE'),
  ('game_icons',
   '/Users/louie.gu/Desktop/IST/Python/PyQtictactoe/src/main/python/game_icons.py',
   'PYMODULE')],
 [('Python',
   '/Library/Frameworks/Python.framework/Versions/3.6/Python',
   'BINARY'),
  ('PyQt5/Qt/plugins/imageformats/libqwbmp.dylib',
   '/Users/louie.gu/Desktop/IST/Python/PyQtictactoe/venv/lib/python3.6/site-packages/PyQt5/Qt/plugins/imageformats/libqwbmp.dylib',
   'BINARY'),
  ('PyQt5/Qt/plugins/imageformats/libqgif.dylib',
   '/Users/louie.gu/Desktop/IST/Python/PyQtictactoe/venv/lib/python3.6/site-packages/PyQt5/Qt/plugins/imageformats/libqgif.dylib',
   'BINARY'),
  ('PyQt5/Qt/plugins/platforms/libqminimal.dylib',
   '/Users/louie.gu/Desktop/IST/Python/PyQtictactoe/venv/lib/python3.6/site-packages/PyQt5/Qt/plugins/platforms/libqminimal.dylib',
   'BINARY'),
  ('PyQt5/Qt/plugins/iconengines/libqsvgicon.dylib',
   '/Users/louie.gu/Desktop/IST/Python/PyQtictactoe/venv/lib/python3.6/site-packages/PyQt5/Qt/plugins/iconengines/libqsvgicon.dylib',
   'BINARY'),
  ('PyQt5/Qt/plugins/imageformats/libqsvg.dylib',
   '/Users/louie.gu/Desktop/IST/Python/PyQtictactoe/venv/lib/python3.6/site-packages/PyQt5/Qt/plugins/imageformats/libqsvg.dylib',
   'BINARY'),
  ('PyQt5/Qt/plugins/mediaservice/libqtmedia_audioengine.dylib',
   '/Users/louie.gu/Desktop/IST/Python/PyQtictactoe/venv/lib/python3.6/site-packages/PyQt5/Qt/plugins/mediaservice/libqtmedia_audioengine.dylib',
   'BINARY'),
  ('PyQt5/Qt/plugins/imageformats/libqtiff.dylib',
   '/Users/louie.gu/Desktop/IST/Python/PyQtictactoe/venv/lib/python3.6/site-packages/PyQt5/Qt/plugins/imageformats/libqtiff.dylib',
   'BINARY'),
  ('PyQt5/Qt/plugins/platforms/libqoffscreen.dylib',
   '/Users/louie.gu/Desktop/IST/Python/PyQtictactoe/venv/lib/python3.6/site-packages/PyQt5/Qt/plugins/platforms/libqoffscreen.dylib',
   'BINARY'),
  ('PyQt5/Qt/plugins/imageformats/libqicns.dylib',
   '/Users/louie.gu/Desktop/IST/Python/PyQtictactoe/venv/lib/python3.6/site-packages/PyQt5/Qt/plugins/imageformats/libqicns.dylib',
   'BINARY'),
  ('PyQt5/Qt/plugins/platforms/libqcocoa.dylib',
   '/Users/louie.gu/Desktop/IST/Python/PyQtictactoe/venv/lib/python3.6/site-packages/PyQt5/Qt/plugins/platforms/libqcocoa.dylib',
   'BINARY'),
  ('PyQt5/Qt/plugins/bearer/libqcorewlanbearer.dylib',
   '/Users/louie.gu/Desktop/IST/Python/PyQtictactoe/venv/lib/python3.6/site-packages/PyQt5/Qt/plugins/bearer/libqcorewlanbearer.dylib',
   'BINARY'),
  ('PyQt5/Qt/plugins/playlistformats/libqtmultimedia_m3u.dylib',
   '/Users/louie.gu/Desktop/IST/Python/PyQtictactoe/venv/lib/python3.6/site-packages/PyQt5/Qt/plugins/playlistformats/libqtmultimedia_m3u.dylib',
   'BINARY'),
  ('PyQt5/Qt/plugins/audio/libqtaudio_coreaudio.dylib',
   '/Users/louie.gu/Desktop/IST/Python/PyQtictactoe/venv/lib/python3.6/site-packages/PyQt5/Qt/plugins/audio/libqtaudio_coreaudio.dylib',
   'BINARY'),
  ('PyQt5/Qt/plugins/imageformats/libqico.dylib',
   '/Users/louie.gu/Desktop/IST/Python/PyQtictactoe/venv/lib/python3.6/site-packages/PyQt5/Qt/plugins/imageformats/libqico.dylib',
   'BINARY'),
  ('PyQt5/Qt/plugins/imageformats/libqmacjp2.dylib',
   '/Users/louie.gu/Desktop/IST/Python/PyQtictactoe/venv/lib/python3.6/site-packages/PyQt5/Qt/plugins/imageformats/libqmacjp2.dylib',
   'BINARY'),
  ('PyQt5/Qt/plugins/mediaservice/libqavfmediaplayer.dylib',
   '/Users/louie.gu/Desktop/IST/Python/PyQtictactoe/venv/lib/python3.6/site-packages/PyQt5/Qt/plugins/mediaservice/libqavfmediaplayer.dylib',
   'BINARY'),
  ('PyQt5/Qt/plugins/imageformats/libqtga.dylib',
   '/Users/louie.gu/Desktop/IST/Python/PyQtictactoe/venv/lib/python3.6/site-packages/PyQt5/Qt/plugins/imageformats/libqtga.dylib',
   'BINARY'),
  ('PyQt5/Qt/plugins/imageformats/libqjpeg.dylib',
   '/Users/louie.gu/Desktop/IST/Python/PyQtictactoe/venv/lib/python3.6/site-packages/PyQt5/Qt/plugins/imageformats/libqjpeg.dylib',
   'BINARY'),
  ('PyQt5/Qt/plugins/imageformats/libqwebp.dylib',
   '/Users/louie.gu/Desktop/IST/Python/PyQtictactoe/venv/lib/python3.6/site-packages/PyQt5/Qt/plugins/imageformats/libqwebp.dylib',
   'BINARY'),
  ('PyQt5/Qt/plugins/bearer/libqgenericbearer.dylib',
   '/Users/louie.gu/Desktop/IST/Python/PyQtictactoe/venv/lib/python3.6/site-packages/PyQt5/Qt/plugins/bearer/libqgenericbearer.dylib',
   'BINARY'),
  ('PyQt5/Qt/plugins/mediaservice/libqavfcamera.dylib',
   '/Users/louie.gu/Desktop/IST/Python/PyQtictactoe/venv/lib/python3.6/site-packages/PyQt5/Qt/plugins/mediaservice/libqavfcamera.dylib',
   'BINARY'),
  ('resource',
   '/Library/Frameworks/Python.framework/Versions/3.6/lib/python3.6/lib-dynload/resource.cpython-36m-darwin.so',
   'EXTENSION'),
  ('_pickle',
   '/Library/Frameworks/Python.framework/Versions/3.6/lib/python3.6/lib-dynload/_pickle.cpython-36m-darwin.so',
   'EXTENSION'),
  ('_posixsubprocess',
   '/Library/Frameworks/Python.framework/Versions/3.6/lib/python3.6/lib-dynload/_posixsubprocess.cpython-36m-darwin.so',
   'EXTENSION'),
  ('_datetime',
   '/Library/Frameworks/Python.framework/Versions/3.6/lib/python3.6/lib-dynload/_datetime.cpython-36m-darwin.so',
   'EXTENSION'),
  ('_ssl',
   '/Library/Frameworks/Python.framework/Versions/3.6/lib/python3.6/lib-dynload/_ssl.cpython-36m-darwin.so',
   'EXTENSION'),
  ('unicodedata',
   '/Library/Frameworks/Python.framework/Versions/3.6/lib/python3.6/lib-dynload/unicodedata.cpython-36m-darwin.so',
   'EXTENSION'),
  ('_codecs_cn',
   '/Library/Frameworks/Python.framework/Versions/3.6/lib/python3.6/lib-dynload/_codecs_cn.cpython-36m-darwin.so',
   'EXTENSION'),
  ('_codecs_hk',
   '/Library/Frameworks/Python.framework/Versions/3.6/lib/python3.6/lib-dynload/_codecs_hk.cpython-36m-darwin.so',
   'EXTENSION'),
  ('_codecs_kr',
   '/Library/Frameworks/Python.framework/Versions/3.6/lib/python3.6/lib-dynload/_codecs_kr.cpython-36m-darwin.so',
   'EXTENSION'),
  ('_codecs_iso2022',
   '/Library/Frameworks/Python.framework/Versions/3.6/lib/python3.6/lib-dynload/_codecs_iso2022.cpython-36m-darwin.so',
   'EXTENSION'),
  ('_codecs_jp',
   '/Library/Frameworks/Python.framework/Versions/3.6/lib/python3.6/lib-dynload/_codecs_jp.cpython-36m-darwin.so',
   'EXTENSION'),
  ('_codecs_tw',
   '/Library/Frameworks/Python.framework/Versions/3.6/lib/python3.6/lib-dynload/_codecs_tw.cpython-36m-darwin.so',
   'EXTENSION'),
  ('_multibytecodec',
   '/Library/Frameworks/Python.framework/Versions/3.6/lib/python3.6/lib-dynload/_multibytecodec.cpython-36m-darwin.so',
   'EXTENSION'),
  ('_heapq',
   '/Library/Frameworks/Python.framework/Versions/3.6/lib/python3.6/lib-dynload/_heapq.cpython-36m-darwin.so',
   'EXTENSION'),
  ('_opcode',
   '/Library/Frameworks/Python.framework/Versions/3.6/lib/python3.6/lib-dynload/_opcode.cpython-36m-darwin.so',
   'EXTENSION'),
  ('readline',
   '/Library/Frameworks/Python.framework/Versions/3.6/lib/python3.6/lib-dynload/readline.cpython-36m-darwin.so',
   'EXTENSION'),
  ('pyexpat',
   '/Library/Frameworks/Python.framework/Versions/3.6/lib/python3.6/lib-dynload/pyexpat.cpython-36m-darwin.so',
   'EXTENSION'),
  ('_scproxy',
   '/Library/Frameworks/Python.framework/Versions/3.6/lib/python3.6/lib-dynload/_scproxy.cpython-36m-darwin.so',
   'EXTENSION'),
  ('termios',
   '/Library/Frameworks/Python.framework/Versions/3.6/lib/python3.6/lib-dynload/termios.cpython-36m-darwin.so',
   'EXTENSION'),
  ('_sha1',
   '/Library/Frameworks/Python.framework/Versions/3.6/lib/python3.6/lib-dynload/_sha1.cpython-36m-darwin.so',
   'EXTENSION'),
  ('_md5',
   '/Library/Frameworks/Python.framework/Versions/3.6/lib/python3.6/lib-dynload/_md5.cpython-36m-darwin.so',
   'EXTENSION'),
  ('_sha256',
   '/Library/Frameworks/Python.framework/Versions/3.6/lib/python3.6/lib-dynload/_sha256.cpython-36m-darwin.so',
   'EXTENSION'),
  ('_sha512',
   '/Library/Frameworks/Python.framework/Versions/3.6/lib/python3.6/lib-dynload/_sha512.cpython-36m-darwin.so',
   'EXTENSION'),
  ('_blake2',
   '/Library/Frameworks/Python.framework/Versions/3.6/lib/python3.6/lib-dynload/_blake2.cpython-36m-darwin.so',
   'EXTENSION'),
  ('_sha3',
   '/Library/Frameworks/Python.framework/Versions/3.6/lib/python3.6/lib-dynload/_sha3.cpython-36m-darwin.so',
   'EXTENSION'),
  ('_hashlib',
   '/Library/Frameworks/Python.framework/Versions/3.6/lib/python3.6/lib-dynload/_hashlib.cpython-36m-darwin.so',
   'EXTENSION'),
  ('_bisect',
   '/Library/Frameworks/Python.framework/Versions/3.6/lib/python3.6/lib-dynload/_bisect.cpython-36m-darwin.so',
   'EXTENSION'),
  ('_random',
   '/Library/Frameworks/Python.framework/Versions/3.6/lib/python3.6/lib-dynload/_random.cpython-36m-darwin.so',
   'EXTENSION'),
  ('select',
   '/Library/Frameworks/Python.framework/Versions/3.6/lib/python3.6/lib-dynload/select.cpython-36m-darwin.so',
   'EXTENSION'),
  ('zlib',
   '/Library/Frameworks/Python.framework/Versions/3.6/lib/python3.6/lib-dynload/zlib.cpython-36m-darwin.so',
   'EXTENSION'),
  ('_bz2',
   '/Library/Frameworks/Python.framework/Versions/3.6/lib/python3.6/lib-dynload/_bz2.cpython-36m-darwin.so',
   'EXTENSION'),
  ('_lzma',
   '/Library/Frameworks/Python.framework/Versions/3.6/lib/python3.6/lib-dynload/_lzma.cpython-36m-darwin.so',
   'EXTENSION'),
  ('grp',
   '/Library/Frameworks/Python.framework/Versions/3.6/lib/python3.6/lib-dynload/grp.cpython-36m-darwin.so',
   'EXTENSION'),
  ('binascii',
   '/Library/Frameworks/Python.framework/Versions/3.6/lib/python3.6/lib-dynload/binascii.cpython-36m-darwin.so',
   'EXTENSION'),
  ('_socket',
   '/Library/Frameworks/Python.framework/Versions/3.6/lib/python3.6/lib-dynload/_socket.cpython-36m-darwin.so',
   'EXTENSION'),
  ('math',
   '/Library/Frameworks/Python.framework/Versions/3.6/lib/python3.6/lib-dynload/math.cpython-36m-darwin.so',
   'EXTENSION'),
  ('_struct',
   '/Library/Frameworks/Python.framework/Versions/3.6/lib/python3.6/lib-dynload/_struct.cpython-36m-darwin.so',
   'EXTENSION'),
  ('_elementtree',
   '/Library/Frameworks/Python.framework/Versions/3.6/lib/python3.6/lib-dynload/_elementtree.cpython-36m-darwin.so',
   'EXTENSION'),
  ('sip',
   '/Users/louie.gu/Desktop/IST/Python/PyQtictactoe/venv/lib/python3.6/site-packages/sip.so',
   'EXTENSION'),
  ('PyQt5.QtMultimedia',
   '/Users/louie.gu/Desktop/IST/Python/PyQtictactoe/venv/lib/python3.6/site-packages/PyQt5/QtMultimedia.so',
   'EXTENSION'),
  ('PyQt5.QtNetwork',
   '/Users/louie.gu/Desktop/IST/Python/PyQtictactoe/venv/lib/python3.6/site-packages/PyQt5/QtNetwork.so',
   'EXTENSION'),
  ('PyQt5.QtGui',
   '/Users/louie.gu/Desktop/IST/Python/PyQtictactoe/venv/lib/python3.6/site-packages/PyQt5/QtGui.so',
   'EXTENSION'),
  ('PyQt5.QtCore',
   '/Users/louie.gu/Desktop/IST/Python/PyQtictactoe/venv/lib/python3.6/site-packages/PyQt5/QtCore.so',
   'EXTENSION'),
  ('PyQt5.QtWidgets',
   '/Users/louie.gu/Desktop/IST/Python/PyQtictactoe/venv/lib/python3.6/site-packages/PyQt5/QtWidgets.so',
   'EXTENSION'),
  ('_json',
   '/Library/Frameworks/Python.framework/Versions/3.6/lib/python3.6/lib-dynload/_json.cpython-36m-darwin.so',
   'EXTENSION'),
  ('QtGui',
   '/Users/louie.gu/Desktop/IST/Python/PyQtictactoe/venv/lib/python3.6/site-packages/PyQt5/Qt/lib/QtGui.framework/Versions/5/QtGui',
   'BINARY'),
  ('QtCore',
   '/Users/louie.gu/Desktop/IST/Python/PyQtictactoe/venv/lib/python3.6/site-packages/PyQt5/Qt/lib/QtCore.framework/Versions/5/QtCore',
   'BINARY'),
  ('QtSvg',
   '/Users/louie.gu/Desktop/IST/Python/PyQtictactoe/venv/lib/python3.6/site-packages/PyQt5/Qt/lib/QtSvg.framework/Versions/5/QtSvg',
   'BINARY'),
  ('QtWidgets',
   '/Users/louie.gu/Desktop/IST/Python/PyQtictactoe/venv/lib/python3.6/site-packages/PyQt5/Qt/lib/QtWidgets.framework/Versions/5/QtWidgets',
   'BINARY'),
  ('QtMultimedia',
   '/Users/louie.gu/Desktop/IST/Python/PyQtictactoe/venv/lib/python3.6/site-packages/PyQt5/Qt/lib/QtMultimedia.framework/Versions/5/QtMultimedia',
   'BINARY'),
  ('QtNetwork',
   '/Users/louie.gu/Desktop/IST/Python/PyQtictactoe/venv/lib/python3.6/site-packages/PyQt5/Qt/lib/QtNetwork.framework/Versions/5/QtNetwork',
   'BINARY'),
  ('QtPrintSupport',
   '/Users/louie.gu/Desktop/IST/Python/PyQtictactoe/venv/lib/python3.6/site-packages/PyQt5/Qt/lib/QtPrintSupport.framework/Versions/5/QtPrintSupport',
   'BINARY'),
  ('QtMultimediaWidgets',
   '/Users/louie.gu/Desktop/IST/Python/PyQtictactoe/venv/lib/python3.6/site-packages/PyQt5/Qt/lib/QtMultimediaWidgets.framework/Versions/5/QtMultimediaWidgets',
   'BINARY'),
  ('libssl.1.0.0.dylib',
   '/Library/Frameworks/Python.framework/Versions/3.6/lib/libssl.1.0.0.dylib',
   'BINARY'),
  ('libcrypto.1.0.0.dylib',
   '/Library/Frameworks/Python.framework/Versions/3.6/lib/libcrypto.1.0.0.dylib',
   'BINARY'),
  ('libncursesw.5.dylib',
   '/Library/Frameworks/Python.framework/Versions/3.6/lib/libncursesw.5.dylib',
   'BINARY'),
  ('QtOpenGL',
   '/Users/louie.gu/Desktop/IST/Python/PyQtictactoe/venv/lib/python3.6/site-packages/PyQt5/Qt/lib/QtOpenGL.framework/Versions/5/QtOpenGL',
   'BINARY')],
 [],
 [],
 [('base_library.zip',
   '/Users/louie.gu/Desktop/IST/Python/PyQtictactoe/target/PyInstaller/PyQtictactoe/base_library.zip',
   'DATA'),
  ('PyQt5/Qt/translations/qtmultimedia_en.qm',
   '/Users/louie.gu/Desktop/IST/Python/PyQtictactoe/venv/lib/python3.6/site-packages/PyQt5/Qt/translations/qtmultimedia_en.qm',
   'DATA'),
  ('PyQt5/uic/widget-plugins/__pycache__/qscintilla.cpython-36.pyc',
   '/Users/louie.gu/Desktop/IST/Python/PyQtictactoe/venv/lib/python3.6/site-packages/PyQt5/uic/widget-plugins/__pycache__/qscintilla.cpython-36.pyc',
   'DATA'),
  ('PyQt5/Qt/translations/qtmultimedia_ru.qm',
   '/Users/louie.gu/Desktop/IST/Python/PyQtictactoe/venv/lib/python3.6/site-packages/PyQt5/Qt/translations/qtmultimedia_ru.qm',
   'DATA'),
  ('PyQt5/Qt/translations/qtbase_ru.qm',
   '/Users/louie.gu/Desktop/IST/Python/PyQtictactoe/venv/lib/python3.6/site-packages/PyQt5/Qt/translations/qtbase_ru.qm',
   'DATA'),
  ('PyQt5/uic/widget-plugins/qtwebenginewidgets.py',
   '/Users/louie.gu/Desktop/IST/Python/PyQtictactoe/venv/lib/python3.6/site-packages/PyQt5/uic/widget-plugins/qtwebenginewidgets.py',
   'DATA'),
  ('PyQt5/Qt/translations/qtbase_it.qm',
   '/Users/louie.gu/Desktop/IST/Python/PyQtictactoe/venv/lib/python3.6/site-packages/PyQt5/Qt/translations/qtbase_it.qm',
   'DATA'),
  ('PyQt5/uic/widget-plugins/qaxcontainer.py',
   '/Users/louie.gu/Desktop/IST/Python/PyQtictactoe/venv/lib/python3.6/site-packages/PyQt5/uic/widget-plugins/qaxcontainer.py',
   'DATA'),
  ('PyQt5/uic/widget-plugins/__pycache__/qtquickwidgets.cpython-36.pyc',
   '/Users/louie.gu/Desktop/IST/Python/PyQtictactoe/venv/lib/python3.6/site-packages/PyQt5/uic/widget-plugins/__pycache__/qtquickwidgets.cpython-36.pyc',
   'DATA'),
  ('PyQt5/uic/widget-plugins/__pycache__/qtprintsupport.cpython-36.pyc',
   '/Users/louie.gu/Desktop/IST/Python/PyQtictactoe/venv/lib/python3.6/site-packages/PyQt5/uic/widget-plugins/__pycache__/qtprintsupport.cpython-36.pyc',
   'DATA'),
  ('PyQt5/Qt/translations/qtbase_da.qm',
   '/Users/louie.gu/Desktop/IST/Python/PyQtictactoe/venv/lib/python3.6/site-packages/PyQt5/Qt/translations/qtbase_da.qm',
   'DATA'),
  ('PyQt5/Qt/translations/qtbase_fi.qm',
   '/Users/louie.gu/Desktop/IST/Python/PyQtictactoe/venv/lib/python3.6/site-packages/PyQt5/Qt/translations/qtbase_fi.qm',
   'DATA'),
  ('PyQt5/Qt/translations/qtbase_de.qm',
   '/Users/louie.gu/Desktop/IST/Python/PyQtictactoe/venv/lib/python3.6/site-packages/PyQt5/Qt/translations/qtbase_de.qm',
   'DATA'),
  ('include/python3.6m/pyconfig.h',
   '/Library/Frameworks/Python.framework/Versions/3.6/include/python3.6m/pyconfig.h',
   'DATA'),
  ('PyQt5/Qt/translations/qtbase_he.qm',
   '/Users/louie.gu/Desktop/IST/Python/PyQtictactoe/venv/lib/python3.6/site-packages/PyQt5/Qt/translations/qtbase_he.qm',
   'DATA'),
  ('PyQt5/Qt/translations/qtmultimedia_it.qm',
   '/Users/louie.gu/Desktop/IST/Python/PyQtictactoe/venv/lib/python3.6/site-packages/PyQt5/Qt/translations/qtmultimedia_it.qm',
   'DATA'),
  ('PyQt5/uic/widget-plugins/qtwebkit.py',
   '/Users/louie.gu/Desktop/IST/Python/PyQtictactoe/venv/lib/python3.6/site-packages/PyQt5/uic/widget-plugins/qtwebkit.py',
   'DATA'),
  ('PyQt5/Qt/translations/qtmultimedia_fr.qm',
   '/Users/louie.gu/Desktop/IST/Python/PyQtictactoe/venv/lib/python3.6/site-packages/PyQt5/Qt/translations/qtmultimedia_fr.qm',
   'DATA'),
  ('PyQt5/Qt/translations/qtbase_lv.qm',
   '/Users/louie.gu/Desktop/IST/Python/PyQtictactoe/venv/lib/python3.6/site-packages/PyQt5/Qt/translations/qtbase_lv.qm',
   'DATA'),
  ('PyQt5/Qt/translations/qtbase_sk.qm',
   '/Users/louie.gu/Desktop/IST/Python/PyQtictactoe/venv/lib/python3.6/site-packages/PyQt5/Qt/translations/qtbase_sk.qm',
   'DATA'),
  ('PyQt5/Qt/translations/qtbase_gd.qm',
   '/Users/louie.gu/Desktop/IST/Python/PyQtictactoe/venv/lib/python3.6/site-packages/PyQt5/Qt/translations/qtbase_gd.qm',
   'DATA'),
  ('PyQt5/Qt/translations/qtmultimedia_ja.qm',
   '/Users/louie.gu/Desktop/IST/Python/PyQtictactoe/venv/lib/python3.6/site-packages/PyQt5/Qt/translations/qtmultimedia_ja.qm',
   'DATA'),
  ('PyQt5/uic/widget-plugins/__pycache__/qtwebenginewidgets.cpython-36.pyc',
   '/Users/louie.gu/Desktop/IST/Python/PyQtictactoe/venv/lib/python3.6/site-packages/PyQt5/uic/widget-plugins/__pycache__/qtwebenginewidgets.cpython-36.pyc',
   'DATA'),
  ('PyQt5/Qt/translations/qtmultimedia_ko.qm',
   '/Users/louie.gu/Desktop/IST/Python/PyQtictactoe/venv/lib/python3.6/site-packages/PyQt5/Qt/translations/qtmultimedia_ko.qm',
   'DATA'),
  ('PyQt5/Qt/translations/qtmultimedia_uk.qm',
   '/Users/louie.gu/Desktop/IST/Python/PyQtictactoe/venv/lib/python3.6/site-packages/PyQt5/Qt/translations/qtmultimedia_uk.qm',
   'DATA'),
  ('PyQt5/uic/widget-plugins/__pycache__/qtwebkit.cpython-36.pyc',
   '/Users/louie.gu/Desktop/IST/Python/PyQtictactoe/venv/lib/python3.6/site-packages/PyQt5/uic/widget-plugins/__pycache__/qtwebkit.cpython-36.pyc',
   'DATA'),
  ('PyQt5/Qt/translations/qtmultimedia_sk.qm',
   '/Users/louie.gu/Desktop/IST/Python/PyQtictactoe/venv/lib/python3.6/site-packages/PyQt5/Qt/translations/qtmultimedia_sk.qm',
   'DATA'),
  ('PyQt5/uic/widget-plugins/qtquickwidgets.py',
   '/Users/louie.gu/Desktop/IST/Python/PyQtictactoe/venv/lib/python3.6/site-packages/PyQt5/uic/widget-plugins/qtquickwidgets.py',
   'DATA'),
  ('PyQt5/Qt/translations/qtmultimedia_bg.qm',
   '/Users/louie.gu/Desktop/IST/Python/PyQtictactoe/venv/lib/python3.6/site-packages/PyQt5/Qt/translations/qtmultimedia_bg.qm',
   'DATA'),
  ('PyQt5/Qt/translations/qtbase_ja.qm',
   '/Users/louie.gu/Desktop/IST/Python/PyQtictactoe/venv/lib/python3.6/site-packages/PyQt5/Qt/translations/qtbase_ja.qm',
   'DATA'),
  ('PyQt5/Qt/translations/qtmultimedia_hu.qm',
   '/Users/louie.gu/Desktop/IST/Python/PyQtictactoe/venv/lib/python3.6/site-packages/PyQt5/Qt/translations/qtmultimedia_hu.qm',
   'DATA'),
  ('lib/python3.6/config-3.6m-darwin/Makefile',
   '/Library/Frameworks/Python.framework/Versions/3.6/lib/python3.6/config-3.6m-darwin/Makefile',
   'DATA'),
  ('PyQt5/Qt/translations/qtbase_pl.qm',
   '/Users/louie.gu/Desktop/IST/Python/PyQtictactoe/venv/lib/python3.6/site-packages/PyQt5/Qt/translations/qtbase_pl.qm',
   'DATA'),
  ('PyQt5/Qt/translations/qtmultimedia_da.qm',
   '/Users/louie.gu/Desktop/IST/Python/PyQtictactoe/venv/lib/python3.6/site-packages/PyQt5/Qt/translations/qtmultimedia_da.qm',
   'DATA'),
  ('PyQt5/Qt/translations/qtbase_ca.qm',
   '/Users/louie.gu/Desktop/IST/Python/PyQtictactoe/venv/lib/python3.6/site-packages/PyQt5/Qt/translations/qtbase_ca.qm',
   'DATA'),
  ('PyQt5/Qt/translations/qtmultimedia_es.qm',
   '/Users/louie.gu/Desktop/IST/Python/PyQtictactoe/venv/lib/python3.6/site-packages/PyQt5/Qt/translations/qtmultimedia_es.qm',
   'DATA'),
  ('PyQt5/Qt/translations/qtmultimedia_ca.qm',
   '/Users/louie.gu/Desktop/IST/Python/PyQtictactoe/venv/lib/python3.6/site-packages/PyQt5/Qt/translations/qtmultimedia_ca.qm',
   'DATA'),
  ('PyQt5/Qt/translations/qtbase_uk.qm',
   '/Users/louie.gu/Desktop/IST/Python/PyQtictactoe/venv/lib/python3.6/site-packages/PyQt5/Qt/translations/qtbase_uk.qm',
   'DATA'),
  ('PyQt5/Qt/translations/qtbase_ko.qm',
   '/Users/louie.gu/Desktop/IST/Python/PyQtictactoe/venv/lib/python3.6/site-packages/PyQt5/Qt/translations/qtbase_ko.qm',
   'DATA'),
  ('PyQt5/Qt/translations/qtmultimedia_fi.qm',
   '/Users/louie.gu/Desktop/IST/Python/PyQtictactoe/venv/lib/python3.6/site-packages/PyQt5/Qt/translations/qtmultimedia_fi.qm',
   'DATA'),
  ('PyQt5/Qt/translations/qtbase_en.qm',
   '/Users/louie.gu/Desktop/IST/Python/PyQtictactoe/venv/lib/python3.6/site-packages/PyQt5/Qt/translations/qtbase_en.qm',
   'DATA'),
  ('PyQt5/uic/widget-plugins/__pycache__/qtcharts.cpython-36.pyc',
   '/Users/louie.gu/Desktop/IST/Python/PyQtictactoe/venv/lib/python3.6/site-packages/PyQt5/uic/widget-plugins/__pycache__/qtcharts.cpython-36.pyc',
   'DATA'),
  ('PyQt5/uic/widget-plugins/__pycache__/qaxcontainer.cpython-36.pyc',
   '/Users/louie.gu/Desktop/IST/Python/PyQtictactoe/venv/lib/python3.6/site-packages/PyQt5/uic/widget-plugins/__pycache__/qaxcontainer.cpython-36.pyc',
   'DATA'),
  ('PyQt5/uic/widget-plugins/qtcharts.py',
   '/Users/louie.gu/Desktop/IST/Python/PyQtictactoe/venv/lib/python3.6/site-packages/PyQt5/uic/widget-plugins/qtcharts.py',
   'DATA'),
  ('PyQt5/Qt/translations/qtbase_fr.qm',
   '/Users/louie.gu/Desktop/IST/Python/PyQtictactoe/venv/lib/python3.6/site-packages/PyQt5/Qt/translations/qtbase_fr.qm',
   'DATA'),
  ('PyQt5/Qt/translations/qtmultimedia_pl.qm',
   '/Users/louie.gu/Desktop/IST/Python/PyQtictactoe/venv/lib/python3.6/site-packages/PyQt5/Qt/translations/qtmultimedia_pl.qm',
   'DATA'),
  ('PyQt5/Qt/translations/qtmultimedia_de.qm',
   '/Users/louie.gu/Desktop/IST/Python/PyQtictactoe/venv/lib/python3.6/site-packages/PyQt5/Qt/translations/qtmultimedia_de.qm',
   'DATA'),
  ('PyQt5/Qt/translations/qtmultimedia_cs.qm',
   '/Users/louie.gu/Desktop/IST/Python/PyQtictactoe/venv/lib/python3.6/site-packages/PyQt5/Qt/translations/qtmultimedia_cs.qm',
   'DATA'),
  ('PyQt5/Qt/translations/qtbase_cs.qm',
   '/Users/louie.gu/Desktop/IST/Python/PyQtictactoe/venv/lib/python3.6/site-packages/PyQt5/Qt/translations/qtbase_cs.qm',
   'DATA'),
  ('PyQt5/Qt/translations/qtbase_es.qm',
   '/Users/louie.gu/Desktop/IST/Python/PyQtictactoe/venv/lib/python3.6/site-packages/PyQt5/Qt/translations/qtbase_es.qm',
   'DATA'),
  ('PyQt5/uic/widget-plugins/qtprintsupport.py',
   '/Users/louie.gu/Desktop/IST/Python/PyQtictactoe/venv/lib/python3.6/site-packages/PyQt5/uic/widget-plugins/qtprintsupport.py',
   'DATA'),
  ('PyQt5/Qt/translations/qtbase_bg.qm',
   '/Users/louie.gu/Desktop/IST/Python/PyQtictactoe/venv/lib/python3.6/site-packages/PyQt5/Qt/translations/qtbase_bg.qm',
   'DATA'),
  ('PyQt5/uic/widget-plugins/qscintilla.py',
   '/Users/louie.gu/Desktop/IST/Python/PyQtictactoe/venv/lib/python3.6/site-packages/PyQt5/uic/widget-plugins/qscintilla.py',
   'DATA'),
  ('PyQt5/Qt/translations/qtbase_hu.qm',
   '/Users/louie.gu/Desktop/IST/Python/PyQtictactoe/venv/lib/python3.6/site-packages/PyQt5/Qt/translations/qtbase_hu.qm',
   'DATA')],
 [])
