([('PyQtictactoe',
   '/Users/louie.gu/Desktop/IST/Python/PyQtictactoe/target/PyInstaller/PyQtictactoe/PyQtictactoe',
   'EXECUTABLE'),
  ('_struct.cpython-36m-darwin.so',
   '/Library/Frameworks/Python.framework/Versions/3.6/lib/python3.6/lib-dynload/_struct.cpython-36m-darwin.so',
   'EXTENSION'),
  ('zlib.cpython-36m-darwin.so',
   '/Library/Frameworks/Python.framework/Versions/3.6/lib/python3.6/lib-dynload/zlib.cpython-36m-darwin.so',
   'EXTENSION'),
  ('Python',
   '/Library/Frameworks/Python.framework/Versions/3.6/Python',
   'BINARY'),
  ('PyQt5/Qt/plugins/imageformats/libqwbmp.dylib',
   '/Users/louie.gu/Desktop/IST/Python/PyQtictactoe/venv/lib/python3.6/site-packages/PyQt5/Qt/plugins/imageformats/libqwbmp.dylib',
   'BINARY'),
  ('PyQt5/Qt/plugins/imageformats/libqgif.dylib',
   '/Users/louie.gu/Desktop/IST/Python/PyQtictactoe/venv/lib/python3.6/site-packages/PyQt5/Qt/plugins/imageformats/libqgif.dylib',
   'BINARY'),
  ('PyQt5/Qt/plugins/platforms/libqminimal.dylib',
   '/Users/louie.gu/Desktop/IST/Python/PyQtictactoe/venv/lib/python3.6/site-packages/PyQt5/Qt/plugins/platforms/libqminimal.dylib',
   'BINARY'),
  ('PyQt5/Qt/plugins/iconengines/libqsvgicon.dylib',
   '/Users/louie.gu/Desktop/IST/Python/PyQtictactoe/venv/lib/python3.6/site-packages/PyQt5/Qt/plugins/iconengines/libqsvgicon.dylib',
   'BINARY'),
  ('PyQt5/Qt/plugins/imageformats/libqsvg.dylib',
   '/Users/louie.gu/Desktop/IST/Python/PyQtictactoe/venv/lib/python3.6/site-packages/PyQt5/Qt/plugins/imageformats/libqsvg.dylib',
   'BINARY'),
  ('PyQt5/Qt/plugins/mediaservice/libqtmedia_audioengine.dylib',
   '/Users/louie.gu/Desktop/IST/Python/PyQtictactoe/venv/lib/python3.6/site-packages/PyQt5/Qt/plugins/mediaservice/libqtmedia_audioengine.dylib',
   'BINARY'),
  ('PyQt5/Qt/plugins/imageformats/libqtiff.dylib',
   '/Users/louie.gu/Desktop/IST/Python/PyQtictactoe/venv/lib/python3.6/site-packages/PyQt5/Qt/plugins/imageformats/libqtiff.dylib',
   'BINARY'),
  ('PyQt5/Qt/plugins/platforms/libqoffscreen.dylib',
   '/Users/louie.gu/Desktop/IST/Python/PyQtictactoe/venv/lib/python3.6/site-packages/PyQt5/Qt/plugins/platforms/libqoffscreen.dylib',
   'BINARY'),
  ('PyQt5/Qt/plugins/imageformats/libqicns.dylib',
   '/Users/louie.gu/Desktop/IST/Python/PyQtictactoe/venv/lib/python3.6/site-packages/PyQt5/Qt/plugins/imageformats/libqicns.dylib',
   'BINARY'),
  ('PyQt5/Qt/plugins/platforms/libqcocoa.dylib',
   '/Users/louie.gu/Desktop/IST/Python/PyQtictactoe/venv/lib/python3.6/site-packages/PyQt5/Qt/plugins/platforms/libqcocoa.dylib',
   'BINARY'),
  ('PyQt5/Qt/plugins/bearer/libqcorewlanbearer.dylib',
   '/Users/louie.gu/Desktop/IST/Python/PyQtictactoe/venv/lib/python3.6/site-packages/PyQt5/Qt/plugins/bearer/libqcorewlanbearer.dylib',
   'BINARY'),
  ('PyQt5/Qt/plugins/playlistformats/libqtmultimedia_m3u.dylib',
   '/Users/louie.gu/Desktop/IST/Python/PyQtictactoe/venv/lib/python3.6/site-packages/PyQt5/Qt/plugins/playlistformats/libqtmultimedia_m3u.dylib',
   'BINARY'),
  ('PyQt5/Qt/plugins/audio/libqtaudio_coreaudio.dylib',
   '/Users/louie.gu/Desktop/IST/Python/PyQtictactoe/venv/lib/python3.6/site-packages/PyQt5/Qt/plugins/audio/libqtaudio_coreaudio.dylib',
   'BINARY'),
  ('PyQt5/Qt/plugins/imageformats/libqico.dylib',
   '/Users/louie.gu/Desktop/IST/Python/PyQtictactoe/venv/lib/python3.6/site-packages/PyQt5/Qt/plugins/imageformats/libqico.dylib',
   'BINARY'),
  ('PyQt5/Qt/plugins/imageformats/libqmacjp2.dylib',
   '/Users/louie.gu/Desktop/IST/Python/PyQtictactoe/venv/lib/python3.6/site-packages/PyQt5/Qt/plugins/imageformats/libqmacjp2.dylib',
   'BINARY'),
  ('PyQt5/Qt/plugins/mediaservice/libqavfmediaplayer.dylib',
   '/Users/louie.gu/Desktop/IST/Python/PyQtictactoe/venv/lib/python3.6/site-packages/PyQt5/Qt/plugins/mediaservice/libqavfmediaplayer.dylib',
   'BINARY'),
  ('PyQt5/Qt/plugins/imageformats/libqtga.dylib',
   '/Users/louie.gu/Desktop/IST/Python/PyQtictactoe/venv/lib/python3.6/site-packages/PyQt5/Qt/plugins/imageformats/libqtga.dylib',
   'BINARY'),
  ('PyQt5/Qt/plugins/imageformats/libqjpeg.dylib',
   '/Users/louie.gu/Desktop/IST/Python/PyQtictactoe/venv/lib/python3.6/site-packages/PyQt5/Qt/plugins/imageformats/libqjpeg.dylib',
   'BINARY'),
  ('PyQt5/Qt/plugins/imageformats/libqwebp.dylib',
   '/Users/louie.gu/Desktop/IST/Python/PyQtictactoe/venv/lib/python3.6/site-packages/PyQt5/Qt/plugins/imageformats/libqwebp.dylib',
   'BINARY'),
  ('PyQt5/Qt/plugins/bearer/libqgenericbearer.dylib',
   '/Users/louie.gu/Desktop/IST/Python/PyQtictactoe/venv/lib/python3.6/site-packages/PyQt5/Qt/plugins/bearer/libqgenericbearer.dylib',
   'BINARY'),
  ('PyQt5/Qt/plugins/mediaservice/libqavfcamera.dylib',
   '/Users/louie.gu/Desktop/IST/Python/PyQtictactoe/venv/lib/python3.6/site-packages/PyQt5/Qt/plugins/mediaservice/libqavfcamera.dylib',
   'BINARY'),
  ('resource',
   '/Library/Frameworks/Python.framework/Versions/3.6/lib/python3.6/lib-dynload/resource.cpython-36m-darwin.so',
   'EXTENSION'),
  ('_pickle',
   '/Library/Frameworks/Python.framework/Versions/3.6/lib/python3.6/lib-dynload/_pickle.cpython-36m-darwin.so',
   'EXTENSION'),
  ('_posixsubprocess',
   '/Library/Frameworks/Python.framework/Versions/3.6/lib/python3.6/lib-dynload/_posixsubprocess.cpython-36m-darwin.so',
   'EXTENSION'),
  ('_datetime',
   '/Library/Frameworks/Python.framework/Versions/3.6/lib/python3.6/lib-dynload/_datetime.cpython-36m-darwin.so',
   'EXTENSION'),
  ('_ssl',
   '/Library/Frameworks/Python.framework/Versions/3.6/lib/python3.6/lib-dynload/_ssl.cpython-36m-darwin.so',
   'EXTENSION'),
  ('unicodedata',
   '/Library/Frameworks/Python.framework/Versions/3.6/lib/python3.6/lib-dynload/unicodedata.cpython-36m-darwin.so',
   'EXTENSION'),
  ('_codecs_cn',
   '/Library/Frameworks/Python.framework/Versions/3.6/lib/python3.6/lib-dynload/_codecs_cn.cpython-36m-darwin.so',
   'EXTENSION'),
  ('_codecs_hk',
   '/Library/Frameworks/Python.framework/Versions/3.6/lib/python3.6/lib-dynload/_codecs_hk.cpython-36m-darwin.so',
   'EXTENSION'),
  ('_codecs_kr',
   '/Library/Frameworks/Python.framework/Versions/3.6/lib/python3.6/lib-dynload/_codecs_kr.cpython-36m-darwin.so',
   'EXTENSION'),
  ('_codecs_iso2022',
   '/Library/Frameworks/Python.framework/Versions/3.6/lib/python3.6/lib-dynload/_codecs_iso2022.cpython-36m-darwin.so',
   'EXTENSION'),
  ('_codecs_jp',
   '/Library/Frameworks/Python.framework/Versions/3.6/lib/python3.6/lib-dynload/_codecs_jp.cpython-36m-darwin.so',
   'EXTENSION'),
  ('_codecs_tw',
   '/Library/Frameworks/Python.framework/Versions/3.6/lib/python3.6/lib-dynload/_codecs_tw.cpython-36m-darwin.so',
   'EXTENSION'),
  ('_multibytecodec',
   '/Library/Frameworks/Python.framework/Versions/3.6/lib/python3.6/lib-dynload/_multibytecodec.cpython-36m-darwin.so',
   'EXTENSION'),
  ('_heapq',
   '/Library/Frameworks/Python.framework/Versions/3.6/lib/python3.6/lib-dynload/_heapq.cpython-36m-darwin.so',
   'EXTENSION'),
  ('_opcode',
   '/Library/Frameworks/Python.framework/Versions/3.6/lib/python3.6/lib-dynload/_opcode.cpython-36m-darwin.so',
   'EXTENSION'),
  ('readline',
   '/Library/Frameworks/Python.framework/Versions/3.6/lib/python3.6/lib-dynload/readline.cpython-36m-darwin.so',
   'EXTENSION'),
  ('pyexpat',
   '/Library/Frameworks/Python.framework/Versions/3.6/lib/python3.6/lib-dynload/pyexpat.cpython-36m-darwin.so',
   'EXTENSION'),
  ('_scproxy',
   '/Library/Frameworks/Python.framework/Versions/3.6/lib/python3.6/lib-dynload/_scproxy.cpython-36m-darwin.so',
   'EXTENSION'),
  ('termios',
   '/Library/Frameworks/Python.framework/Versions/3.6/lib/python3.6/lib-dynload/termios.cpython-36m-darwin.so',
   'EXTENSION'),
  ('_sha1',
   '/Library/Frameworks/Python.framework/Versions/3.6/lib/python3.6/lib-dynload/_sha1.cpython-36m-darwin.so',
   'EXTENSION'),
  ('_md5',
   '/Library/Frameworks/Python.framework/Versions/3.6/lib/python3.6/lib-dynload/_md5.cpython-36m-darwin.so',
   'EXTENSION'),
  ('_sha256',
   '/Library/Frameworks/Python.framework/Versions/3.6/lib/python3.6/lib-dynload/_sha256.cpython-36m-darwin.so',
   'EXTENSION'),
  ('_sha512',
   '/Library/Frameworks/Python.framework/Versions/3.6/lib/python3.6/lib-dynload/_sha512.cpython-36m-darwin.so',
   'EXTENSION'),
  ('_blake2',
   '/Library/Frameworks/Python.framework/Versions/3.6/lib/python3.6/lib-dynload/_blake2.cpython-36m-darwin.so',
   'EXTENSION'),
  ('_sha3',
   '/Library/Frameworks/Python.framework/Versions/3.6/lib/python3.6/lib-dynload/_sha3.cpython-36m-darwin.so',
   'EXTENSION'),
  ('_hashlib',
   '/Library/Frameworks/Python.framework/Versions/3.6/lib/python3.6/lib-dynload/_hashlib.cpython-36m-darwin.so',
   'EXTENSION'),
  ('_bisect',
   '/Library/Frameworks/Python.framework/Versions/3.6/lib/python3.6/lib-dynload/_bisect.cpython-36m-darwin.so',
   'EXTENSION'),
  ('_random',
   '/Library/Frameworks/Python.framework/Versions/3.6/lib/python3.6/lib-dynload/_random.cpython-36m-darwin.so',
   'EXTENSION'),
  ('select',
   '/Library/Frameworks/Python.framework/Versions/3.6/lib/python3.6/lib-dynload/select.cpython-36m-darwin.so',
   'EXTENSION'),
  ('zlib',
   '/Library/Frameworks/Python.framework/Versions/3.6/lib/python3.6/lib-dynload/zlib.cpython-36m-darwin.so',
   'EXTENSION'),
  ('_bz2',
   '/Library/Frameworks/Python.framework/Versions/3.6/lib/python3.6/lib-dynload/_bz2.cpython-36m-darwin.so',
   'EXTENSION'),
  ('_lzma',
   '/Library/Frameworks/Python.framework/Versions/3.6/lib/python3.6/lib-dynload/_lzma.cpython-36m-darwin.so',
   'EXTENSION'),
  ('grp',
   '/Library/Frameworks/Python.framework/Versions/3.6/lib/python3.6/lib-dynload/grp.cpython-36m-darwin.so',
   'EXTENSION'),
  ('binascii',
   '/Library/Frameworks/Python.framework/Versions/3.6/lib/python3.6/lib-dynload/binascii.cpython-36m-darwin.so',
   'EXTENSION'),
  ('_socket',
   '/Library/Frameworks/Python.framework/Versions/3.6/lib/python3.6/lib-dynload/_socket.cpython-36m-darwin.so',
   'EXTENSION'),
  ('math',
   '/Library/Frameworks/Python.framework/Versions/3.6/lib/python3.6/lib-dynload/math.cpython-36m-darwin.so',
   'EXTENSION'),
  ('_struct',
   '/Library/Frameworks/Python.framework/Versions/3.6/lib/python3.6/lib-dynload/_struct.cpython-36m-darwin.so',
   'EXTENSION'),
  ('_elementtree',
   '/Library/Frameworks/Python.framework/Versions/3.6/lib/python3.6/lib-dynload/_elementtree.cpython-36m-darwin.so',
   'EXTENSION'),
  ('sip',
   '/Users/louie.gu/Desktop/IST/Python/PyQtictactoe/venv/lib/python3.6/site-packages/sip.so',
   'EXTENSION'),
  ('PyQt5.QtMultimedia',
   '/Users/louie.gu/Desktop/IST/Python/PyQtictactoe/venv/lib/python3.6/site-packages/PyQt5/QtMultimedia.so',
   'EXTENSION'),
  ('PyQt5.QtNetwork',
   '/Users/louie.gu/Desktop/IST/Python/PyQtictactoe/venv/lib/python3.6/site-packages/PyQt5/QtNetwork.so',
   'EXTENSION'),
  ('PyQt5.QtGui',
   '/Users/louie.gu/Desktop/IST/Python/PyQtictactoe/venv/lib/python3.6/site-packages/PyQt5/QtGui.so',
   'EXTENSION'),
  ('PyQt5.QtCore',
   '/Users/louie.gu/Desktop/IST/Python/PyQtictactoe/venv/lib/python3.6/site-packages/PyQt5/QtCore.so',
   'EXTENSION'),
  ('PyQt5.QtWidgets',
   '/Users/louie.gu/Desktop/IST/Python/PyQtictactoe/venv/lib/python3.6/site-packages/PyQt5/QtWidgets.so',
   'EXTENSION'),
  ('_json',
   '/Library/Frameworks/Python.framework/Versions/3.6/lib/python3.6/lib-dynload/_json.cpython-36m-darwin.so',
   'EXTENSION'),
  ('QtGui',
   '/Users/louie.gu/Desktop/IST/Python/PyQtictactoe/venv/lib/python3.6/site-packages/PyQt5/Qt/lib/QtGui.framework/Versions/5/QtGui',
   'BINARY'),
  ('QtCore',
   '/Users/louie.gu/Desktop/IST/Python/PyQtictactoe/venv/lib/python3.6/site-packages/PyQt5/Qt/lib/QtCore.framework/Versions/5/QtCore',
   'BINARY'),
  ('QtSvg',
   '/Users/louie.gu/Desktop/IST/Python/PyQtictactoe/venv/lib/python3.6/site-packages/PyQt5/Qt/lib/QtSvg.framework/Versions/5/QtSvg',
   'BINARY'),
  ('QtWidgets',
   '/Users/louie.gu/Desktop/IST/Python/PyQtictactoe/venv/lib/python3.6/site-packages/PyQt5/Qt/lib/QtWidgets.framework/Versions/5/QtWidgets',
   'BINARY'),
  ('QtMultimedia',
   '/Users/louie.gu/Desktop/IST/Python/PyQtictactoe/venv/lib/python3.6/site-packages/PyQt5/Qt/lib/QtMultimedia.framework/Versions/5/QtMultimedia',
   'BINARY'),
  ('QtNetwork',
   '/Users/louie.gu/Desktop/IST/Python/PyQtictactoe/venv/lib/python3.6/site-packages/PyQt5/Qt/lib/QtNetwork.framework/Versions/5/QtNetwork',
   'BINARY'),
  ('QtPrintSupport',
   '/Users/louie.gu/Desktop/IST/Python/PyQtictactoe/venv/lib/python3.6/site-packages/PyQt5/Qt/lib/QtPrintSupport.framework/Versions/5/QtPrintSupport',
   'BINARY'),
  ('QtMultimediaWidgets',
   '/Users/louie.gu/Desktop/IST/Python/PyQtictactoe/venv/lib/python3.6/site-packages/PyQt5/Qt/lib/QtMultimediaWidgets.framework/Versions/5/QtMultimediaWidgets',
   'BINARY'),
  ('libssl.1.0.0.dylib',
   '/Library/Frameworks/Python.framework/Versions/3.6/lib/libssl.1.0.0.dylib',
   'BINARY'),
  ('libcrypto.1.0.0.dylib',
   '/Library/Frameworks/Python.framework/Versions/3.6/lib/libcrypto.1.0.0.dylib',
   'BINARY'),
  ('libncursesw.5.dylib',
   '/Library/Frameworks/Python.framework/Versions/3.6/lib/libncursesw.5.dylib',
   'BINARY'),
  ('QtOpenGL',
   '/Users/louie.gu/Desktop/IST/Python/PyQtictactoe/venv/lib/python3.6/site-packages/PyQt5/Qt/lib/QtOpenGL.framework/Versions/5/QtOpenGL',
   'BINARY'),
  ('base_library.zip',
   '/Users/louie.gu/Desktop/IST/Python/PyQtictactoe/target/PyInstaller/PyQtictactoe/base_library.zip',
   'DATA'),
  ('PyQt5/Qt/translations/qtmultimedia_en.qm',
   '/Users/louie.gu/Desktop/IST/Python/PyQtictactoe/venv/lib/python3.6/site-packages/PyQt5/Qt/translations/qtmultimedia_en.qm',
   'DATA'),
  ('PyQt5/uic/widget-plugins/__pycache__/qscintilla.cpython-36.pyc',
   '/Users/louie.gu/Desktop/IST/Python/PyQtictactoe/venv/lib/python3.6/site-packages/PyQt5/uic/widget-plugins/__pycache__/qscintilla.cpython-36.pyc',
   'DATA'),
  ('PyQt5/Qt/translations/qtmultimedia_ru.qm',
   '/Users/louie.gu/Desktop/IST/Python/PyQtictactoe/venv/lib/python3.6/site-packages/PyQt5/Qt/translations/qtmultimedia_ru.qm',
   'DATA'),
  ('PyQt5/Qt/translations/qtbase_ru.qm',
   '/Users/louie.gu/Desktop/IST/Python/PyQtictactoe/venv/lib/python3.6/site-packages/PyQt5/Qt/translations/qtbase_ru.qm',
   'DATA'),
  ('PyQt5/uic/widget-plugins/qtwebenginewidgets.py',
   '/Users/louie.gu/Desktop/IST/Python/PyQtictactoe/venv/lib/python3.6/site-packages/PyQt5/uic/widget-plugins/qtwebenginewidgets.py',
   'DATA'),
  ('PyQt5/Qt/translations/qtbase_it.qm',
   '/Users/louie.gu/Desktop/IST/Python/PyQtictactoe/venv/lib/python3.6/site-packages/PyQt5/Qt/translations/qtbase_it.qm',
   'DATA'),
  ('PyQt5/uic/widget-plugins/qaxcontainer.py',
   '/Users/louie.gu/Desktop/IST/Python/PyQtictactoe/venv/lib/python3.6/site-packages/PyQt5/uic/widget-plugins/qaxcontainer.py',
   'DATA'),
  ('PyQt5/uic/widget-plugins/__pycache__/qtquickwidgets.cpython-36.pyc',
   '/Users/louie.gu/Desktop/IST/Python/PyQtictactoe/venv/lib/python3.6/site-packages/PyQt5/uic/widget-plugins/__pycache__/qtquickwidgets.cpython-36.pyc',
   'DATA'),
  ('PyQt5/uic/widget-plugins/__pycache__/qtprintsupport.cpython-36.pyc',
   '/Users/louie.gu/Desktop/IST/Python/PyQtictactoe/venv/lib/python3.6/site-packages/PyQt5/uic/widget-plugins/__pycache__/qtprintsupport.cpython-36.pyc',
   'DATA'),
  ('PyQt5/Qt/translations/qtbase_da.qm',
   '/Users/louie.gu/Desktop/IST/Python/PyQtictactoe/venv/lib/python3.6/site-packages/PyQt5/Qt/translations/qtbase_da.qm',
   'DATA'),
  ('PyQt5/Qt/translations/qtbase_fi.qm',
   '/Users/louie.gu/Desktop/IST/Python/PyQtictactoe/venv/lib/python3.6/site-packages/PyQt5/Qt/translations/qtbase_fi.qm',
   'DATA'),
  ('PyQt5/Qt/translations/qtbase_de.qm',
   '/Users/louie.gu/Desktop/IST/Python/PyQtictactoe/venv/lib/python3.6/site-packages/PyQt5/Qt/translations/qtbase_de.qm',
   'DATA'),
  ('include/python3.6m/pyconfig.h',
   '/Library/Frameworks/Python.framework/Versions/3.6/include/python3.6m/pyconfig.h',
   'DATA'),
  ('PyQt5/Qt/translations/qtbase_he.qm',
   '/Users/louie.gu/Desktop/IST/Python/PyQtictactoe/venv/lib/python3.6/site-packages/PyQt5/Qt/translations/qtbase_he.qm',
   'DATA'),
  ('PyQt5/Qt/translations/qtmultimedia_it.qm',
   '/Users/louie.gu/Desktop/IST/Python/PyQtictactoe/venv/lib/python3.6/site-packages/PyQt5/Qt/translations/qtmultimedia_it.qm',
   'DATA'),
  ('PyQt5/uic/widget-plugins/qtwebkit.py',
   '/Users/louie.gu/Desktop/IST/Python/PyQtictactoe/venv/lib/python3.6/site-packages/PyQt5/uic/widget-plugins/qtwebkit.py',
   'DATA'),
  ('PyQt5/Qt/translations/qtmultimedia_fr.qm',
   '/Users/louie.gu/Desktop/IST/Python/PyQtictactoe/venv/lib/python3.6/site-packages/PyQt5/Qt/translations/qtmultimedia_fr.qm',
   'DATA'),
  ('PyQt5/Qt/translations/qtbase_lv.qm',
   '/Users/louie.gu/Desktop/IST/Python/PyQtictactoe/venv/lib/python3.6/site-packages/PyQt5/Qt/translations/qtbase_lv.qm',
   'DATA'),
  ('PyQt5/Qt/translations/qtbase_sk.qm',
   '/Users/louie.gu/Desktop/IST/Python/PyQtictactoe/venv/lib/python3.6/site-packages/PyQt5/Qt/translations/qtbase_sk.qm',
   'DATA'),
  ('PyQt5/Qt/translations/qtbase_gd.qm',
   '/Users/louie.gu/Desktop/IST/Python/PyQtictactoe/venv/lib/python3.6/site-packages/PyQt5/Qt/translations/qtbase_gd.qm',
   'DATA'),
  ('PyQt5/Qt/translations/qtmultimedia_ja.qm',
   '/Users/louie.gu/Desktop/IST/Python/PyQtictactoe/venv/lib/python3.6/site-packages/PyQt5/Qt/translations/qtmultimedia_ja.qm',
   'DATA'),
  ('PyQt5/uic/widget-plugins/__pycache__/qtwebenginewidgets.cpython-36.pyc',
   '/Users/louie.gu/Desktop/IST/Python/PyQtictactoe/venv/lib/python3.6/site-packages/PyQt5/uic/widget-plugins/__pycache__/qtwebenginewidgets.cpython-36.pyc',
   'DATA'),
  ('PyQt5/Qt/translations/qtmultimedia_ko.qm',
   '/Users/louie.gu/Desktop/IST/Python/PyQtictactoe/venv/lib/python3.6/site-packages/PyQt5/Qt/translations/qtmultimedia_ko.qm',
   'DATA'),
  ('PyQt5/Qt/translations/qtmultimedia_uk.qm',
   '/Users/louie.gu/Desktop/IST/Python/PyQtictactoe/venv/lib/python3.6/site-packages/PyQt5/Qt/translations/qtmultimedia_uk.qm',
   'DATA'),
  ('PyQt5/uic/widget-plugins/__pycache__/qtwebkit.cpython-36.pyc',
   '/Users/louie.gu/Desktop/IST/Python/PyQtictactoe/venv/lib/python3.6/site-packages/PyQt5/uic/widget-plugins/__pycache__/qtwebkit.cpython-36.pyc',
   'DATA'),
  ('PyQt5/Qt/translations/qtmultimedia_sk.qm',
   '/Users/louie.gu/Desktop/IST/Python/PyQtictactoe/venv/lib/python3.6/site-packages/PyQt5/Qt/translations/qtmultimedia_sk.qm',
   'DATA'),
  ('PyQt5/uic/widget-plugins/qtquickwidgets.py',
   '/Users/louie.gu/Desktop/IST/Python/PyQtictactoe/venv/lib/python3.6/site-packages/PyQt5/uic/widget-plugins/qtquickwidgets.py',
   'DATA'),
  ('PyQt5/Qt/translations/qtmultimedia_bg.qm',
   '/Users/louie.gu/Desktop/IST/Python/PyQtictactoe/venv/lib/python3.6/site-packages/PyQt5/Qt/translations/qtmultimedia_bg.qm',
   'DATA'),
  ('PyQt5/Qt/translations/qtbase_ja.qm',
   '/Users/louie.gu/Desktop/IST/Python/PyQtictactoe/venv/lib/python3.6/site-packages/PyQt5/Qt/translations/qtbase_ja.qm',
   'DATA'),
  ('PyQt5/Qt/translations/qtmultimedia_hu.qm',
   '/Users/louie.gu/Desktop/IST/Python/PyQtictactoe/venv/lib/python3.6/site-packages/PyQt5/Qt/translations/qtmultimedia_hu.qm',
   'DATA'),
  ('lib/python3.6/config-3.6m-darwin/Makefile',
   '/Library/Frameworks/Python.framework/Versions/3.6/lib/python3.6/config-3.6m-darwin/Makefile',
   'DATA'),
  ('PyQt5/Qt/translations/qtbase_pl.qm',
   '/Users/louie.gu/Desktop/IST/Python/PyQtictactoe/venv/lib/python3.6/site-packages/PyQt5/Qt/translations/qtbase_pl.qm',
   'DATA'),
  ('PyQt5/Qt/translations/qtmultimedia_da.qm',
   '/Users/louie.gu/Desktop/IST/Python/PyQtictactoe/venv/lib/python3.6/site-packages/PyQt5/Qt/translations/qtmultimedia_da.qm',
   'DATA'),
  ('PyQt5/Qt/translations/qtbase_ca.qm',
   '/Users/louie.gu/Desktop/IST/Python/PyQtictactoe/venv/lib/python3.6/site-packages/PyQt5/Qt/translations/qtbase_ca.qm',
   'DATA'),
  ('PyQt5/Qt/translations/qtmultimedia_es.qm',
   '/Users/louie.gu/Desktop/IST/Python/PyQtictactoe/venv/lib/python3.6/site-packages/PyQt5/Qt/translations/qtmultimedia_es.qm',
   'DATA'),
  ('PyQt5/Qt/translations/qtmultimedia_ca.qm',
   '/Users/louie.gu/Desktop/IST/Python/PyQtictactoe/venv/lib/python3.6/site-packages/PyQt5/Qt/translations/qtmultimedia_ca.qm',
   'DATA'),
  ('PyQt5/Qt/translations/qtbase_uk.qm',
   '/Users/louie.gu/Desktop/IST/Python/PyQtictactoe/venv/lib/python3.6/site-packages/PyQt5/Qt/translations/qtbase_uk.qm',
   'DATA'),
  ('PyQt5/Qt/translations/qtbase_ko.qm',
   '/Users/louie.gu/Desktop/IST/Python/PyQtictactoe/venv/lib/python3.6/site-packages/PyQt5/Qt/translations/qtbase_ko.qm',
   'DATA'),
  ('PyQt5/Qt/translations/qtmultimedia_fi.qm',
   '/Users/louie.gu/Desktop/IST/Python/PyQtictactoe/venv/lib/python3.6/site-packages/PyQt5/Qt/translations/qtmultimedia_fi.qm',
   'DATA'),
  ('PyQt5/Qt/translations/qtbase_en.qm',
   '/Users/louie.gu/Desktop/IST/Python/PyQtictactoe/venv/lib/python3.6/site-packages/PyQt5/Qt/translations/qtbase_en.qm',
   'DATA'),
  ('PyQt5/uic/widget-plugins/__pycache__/qtcharts.cpython-36.pyc',
   '/Users/louie.gu/Desktop/IST/Python/PyQtictactoe/venv/lib/python3.6/site-packages/PyQt5/uic/widget-plugins/__pycache__/qtcharts.cpython-36.pyc',
   'DATA'),
  ('PyQt5/uic/widget-plugins/__pycache__/qaxcontainer.cpython-36.pyc',
   '/Users/louie.gu/Desktop/IST/Python/PyQtictactoe/venv/lib/python3.6/site-packages/PyQt5/uic/widget-plugins/__pycache__/qaxcontainer.cpython-36.pyc',
   'DATA'),
  ('PyQt5/uic/widget-plugins/qtcharts.py',
   '/Users/louie.gu/Desktop/IST/Python/PyQtictactoe/venv/lib/python3.6/site-packages/PyQt5/uic/widget-plugins/qtcharts.py',
   'DATA'),
  ('PyQt5/Qt/translations/qtbase_fr.qm',
   '/Users/louie.gu/Desktop/IST/Python/PyQtictactoe/venv/lib/python3.6/site-packages/PyQt5/Qt/translations/qtbase_fr.qm',
   'DATA'),
  ('PyQt5/Qt/translations/qtmultimedia_pl.qm',
   '/Users/louie.gu/Desktop/IST/Python/PyQtictactoe/venv/lib/python3.6/site-packages/PyQt5/Qt/translations/qtmultimedia_pl.qm',
   'DATA'),
  ('PyQt5/Qt/translations/qtmultimedia_de.qm',
   '/Users/louie.gu/Desktop/IST/Python/PyQtictactoe/venv/lib/python3.6/site-packages/PyQt5/Qt/translations/qtmultimedia_de.qm',
   'DATA'),
  ('PyQt5/Qt/translations/qtmultimedia_cs.qm',
   '/Users/louie.gu/Desktop/IST/Python/PyQtictactoe/venv/lib/python3.6/site-packages/PyQt5/Qt/translations/qtmultimedia_cs.qm',
   'DATA'),
  ('PyQt5/Qt/translations/qtbase_cs.qm',
   '/Users/louie.gu/Desktop/IST/Python/PyQtictactoe/venv/lib/python3.6/site-packages/PyQt5/Qt/translations/qtbase_cs.qm',
   'DATA'),
  ('PyQt5/Qt/translations/qtbase_es.qm',
   '/Users/louie.gu/Desktop/IST/Python/PyQtictactoe/venv/lib/python3.6/site-packages/PyQt5/Qt/translations/qtbase_es.qm',
   'DATA'),
  ('PyQt5/uic/widget-plugins/qtprintsupport.py',
   '/Users/louie.gu/Desktop/IST/Python/PyQtictactoe/venv/lib/python3.6/site-packages/PyQt5/uic/widget-plugins/qtprintsupport.py',
   'DATA'),
  ('PyQt5/Qt/translations/qtbase_bg.qm',
   '/Users/louie.gu/Desktop/IST/Python/PyQtictactoe/venv/lib/python3.6/site-packages/PyQt5/Qt/translations/qtbase_bg.qm',
   'DATA'),
  ('PyQt5/uic/widget-plugins/qscintilla.py',
   '/Users/louie.gu/Desktop/IST/Python/PyQtictactoe/venv/lib/python3.6/site-packages/PyQt5/uic/widget-plugins/qscintilla.py',
   'DATA'),
  ('PyQt5/Qt/translations/qtbase_hu.qm',
   '/Users/louie.gu/Desktop/IST/Python/PyQtictactoe/venv/lib/python3.6/site-packages/PyQt5/Qt/translations/qtbase_hu.qm',
   'DATA')],)
