('/Users/louie.gu/Desktop/IST/Python/PyQtictactoe/target/PyInstaller/PyQtictactoe/PKG-00.pkg',
 {'BINARY': 1,
  'DATA': 1,
  'EXECUTABLE': 1,
  'EXTENSION': 1,
  'PYMODULE': 1,
  'PYSOURCE': 1,
  'PYZ': 0},
 [('PYZ-00.pyz',
   '/Users/louie.gu/Desktop/IST/Python/PyQtictactoe/target/PyInstaller/PyQtictactoe/PYZ-00.pyz',
   'PYZ'),
  ('_struct',
   '/Library/Frameworks/Python.framework/Versions/3.6/lib/python3.6/lib-dynload/_struct.cpython-36m-darwin.so',
   'EXTENSION'),
  ('zlib',
   '/Library/Frameworks/Python.framework/Versions/3.6/lib/python3.6/lib-dynload/zlib.cpython-36m-darwin.so',
   'EXTENSION'),
  ('struct',
   '/Library/Frameworks/Python.framework/Versions/3.6/lib/python3.6/struct.pyo',
   'PYMODULE'),
  ('pyimod01_os_path',
   '/Users/louie.gu/Desktop/IST/Python/PyQtictactoe/venv/lib/python3.6/site-packages/PyInstaller/loader/pyimod01_os_path.pyc',
   'PYMODULE'),
  ('pyimod02_archive',
   '/Users/louie.gu/Desktop/IST/Python/PyQtictactoe/venv/lib/python3.6/site-packages/PyInstaller/loader/pyimod02_archive.pyc',
   'PYMODULE'),
  ('pyimod03_importers',
   '/Users/louie.gu/Desktop/IST/Python/PyQtictactoe/venv/lib/python3.6/site-packages/PyInstaller/loader/pyimod03_importers.pyc',
   'PYMODULE'),
  ('pyiboot01_bootstrap',
   '/Users/louie.gu/Desktop/IST/Python/PyQtictactoe/venv/lib/python3.6/site-packages/PyInstaller/loader/pyiboot01_bootstrap.py',
   'PYSOURCE'),
  ('fbs_pyinstaller_hook',
   '/Users/louie.gu/Desktop/IST/Python/PyQtictactoe/target/PyInstaller/fbs_pyinstaller_hook.py',
   'PYSOURCE'),
  ('pyi_rth_qt5',
   '/Users/louie.gu/Desktop/IST/Python/PyQtictactoe/venv/lib/python3.6/site-packages/PyInstaller/loader/rthooks/pyi_rth_qt5.py',
   'PYSOURCE'),
  ('main',
   '/Users/louie.gu/Desktop/IST/Python/PyQtictactoe/src/main/python/main.py',
   'PYSOURCE')],
 True,
 False,
 False)
