('/Users/louie.gu/Desktop/IST/Python/PyQtictactoe/target/PyInstaller/PyQtictactoe/PYZ-00.pyz',
 [('posixpath',
   '/Library/Frameworks/Python.framework/Versions/3.6/lib/python3.6/posixpath.py',
   'PYMODULE'),
  ('_strptime',
   '/Library/Frameworks/Python.framework/Versions/3.6/lib/python3.6/_strptime.py',
   'PYMODULE'),
  ('datetime',
   '/Library/Frameworks/Python.framework/Versions/3.6/lib/python3.6/datetime.py',
   'PYMODULE'),
  ('stringprep',
   '/Library/Frameworks/Python.framework/Versions/3.6/lib/python3.6/stringprep.py',
   'PYMODULE'),
  ('_compat_pickle',
   '/Library/Frameworks/Python.framework/Versions/3.6/lib/python3.6/_compat_pickle.py',
   'PYMODULE'),
  ('pickle',
   '/Library/Frameworks/Python.framework/Versions/3.6/lib/python3.6/pickle.py',
   'PYMODULE'),
  ('tracemalloc',
   '/Library/Frameworks/Python.framework/Versions/3.6/lib/python3.6/tracemalloc.py',
   'PYMODULE'),
  ('__future__',
   '/Library/Frameworks/Python.framework/Versions/3.6/lib/python3.6/__future__.py',
   'PYMODULE'),
  ('argparse',
   '/Library/Frameworks/Python.framework/Versions/3.6/lib/python3.6/argparse.py',
   'PYMODULE'),
  ('difflib',
   '/Library/Frameworks/Python.framework/Versions/3.6/lib/python3.6/difflib.py',
   'PYMODULE'),
  ('ast',
   '/Library/Frameworks/Python.framework/Versions/3.6/lib/python3.6/ast.py',
   'PYMODULE'),
  ('inspect',
   '/Library/Frameworks/Python.framework/Versions/3.6/lib/python3.6/inspect.py',
   'PYMODULE'),
  ('genericpath',
   '/Library/Frameworks/Python.framework/Versions/3.6/lib/python3.6/genericpath.py',
   'PYMODULE'),
  ('ntpath',
   '/Library/Frameworks/Python.framework/Versions/3.6/lib/python3.6/ntpath.py',
   'PYMODULE'),
  ('os',
   '/Library/Frameworks/Python.framework/Versions/3.6/lib/python3.6/os.py',
   'PYMODULE'),
  ('cmd',
   '/Library/Frameworks/Python.framework/Versions/3.6/lib/python3.6/cmd.py',
   'PYMODULE'),
  ('bdb',
   '/Library/Frameworks/Python.framework/Versions/3.6/lib/python3.6/bdb.py',
   'PYMODULE'),
  ('opcode',
   '/Library/Frameworks/Python.framework/Versions/3.6/lib/python3.6/opcode.py',
   'PYMODULE'),
  ('dis',
   '/Library/Frameworks/Python.framework/Versions/3.6/lib/python3.6/dis.py',
   'PYMODULE'),
  ('codeop',
   '/Library/Frameworks/Python.framework/Versions/3.6/lib/python3.6/codeop.py',
   'PYMODULE'),
  ('code',
   '/Library/Frameworks/Python.framework/Versions/3.6/lib/python3.6/code.py',
   'PYMODULE'),
  ('glob',
   '/Library/Frameworks/Python.framework/Versions/3.6/lib/python3.6/glob.py',
   'PYMODULE'),
  ('shlex',
   '/Library/Frameworks/Python.framework/Versions/3.6/lib/python3.6/shlex.py',
   'PYMODULE'),
  ('importlib._bootstrap',
   '/Library/Frameworks/Python.framework/Versions/3.6/lib/python3.6/importlib/_bootstrap.py',
   'PYMODULE'),
  ('importlib._bootstrap_external',
   '/Library/Frameworks/Python.framework/Versions/3.6/lib/python3.6/importlib/_bootstrap_external.py',
   'PYMODULE'),
  ('importlib.machinery',
   '/Library/Frameworks/Python.framework/Versions/3.6/lib/python3.6/importlib/machinery.py',
   'PYMODULE'),
  ('importlib.util',
   '/Library/Frameworks/Python.framework/Versions/3.6/lib/python3.6/importlib/util.py',
   'PYMODULE'),
  ('importlib.abc',
   '/Library/Frameworks/Python.framework/Versions/3.6/lib/python3.6/importlib/abc.py',
   'PYMODULE'),
  ('importlib',
   '/Library/Frameworks/Python.framework/Versions/3.6/lib/python3.6/importlib/__init__.py',
   'PYMODULE'),
  ('pkgutil',
   '/Library/Frameworks/Python.framework/Versions/3.6/lib/python3.6/pkgutil.py',
   'PYMODULE'),
  ('xml',
   '/Library/Frameworks/Python.framework/Versions/3.6/lib/python3.6/xml/__init__.py',
   'PYMODULE'),
  ('xml.sax.expatreader',
   '/Library/Frameworks/Python.framework/Versions/3.6/lib/python3.6/xml/sax/expatreader.py',
   'PYMODULE'),
  ('xml.sax.saxutils',
   '/Library/Frameworks/Python.framework/Versions/3.6/lib/python3.6/xml/sax/saxutils.py',
   'PYMODULE'),
  ('urllib.request',
   '/Library/Frameworks/Python.framework/Versions/3.6/lib/python3.6/urllib/request.py',
   'PYMODULE'),
  ('getpass',
   '/Library/Frameworks/Python.framework/Versions/3.6/lib/python3.6/getpass.py',
   'PYMODULE'),
  ('nturl2path',
   '/Library/Frameworks/Python.framework/Versions/3.6/lib/python3.6/nturl2path.py',
   'PYMODULE'),
  ('ftplib',
   '/Library/Frameworks/Python.framework/Versions/3.6/lib/python3.6/ftplib.py',
   'PYMODULE'),
  ('netrc',
   '/Library/Frameworks/Python.framework/Versions/3.6/lib/python3.6/netrc.py',
   'PYMODULE'),
  ('http.cookiejar',
   '/Library/Frameworks/Python.framework/Versions/3.6/lib/python3.6/http/cookiejar.py',
   'PYMODULE'),
  ('urllib.response',
   '/Library/Frameworks/Python.framework/Versions/3.6/lib/python3.6/urllib/response.py',
   'PYMODULE'),
  ('urllib.error',
   '/Library/Frameworks/Python.framework/Versions/3.6/lib/python3.6/urllib/error.py',
   'PYMODULE'),
  ('xml.sax',
   '/Library/Frameworks/Python.framework/Versions/3.6/lib/python3.6/xml/sax/__init__.py',
   'PYMODULE'),
  ('xml.sax.handler',
   '/Library/Frameworks/Python.framework/Versions/3.6/lib/python3.6/xml/sax/handler.py',
   'PYMODULE'),
  ('xml.sax._exceptions',
   '/Library/Frameworks/Python.framework/Versions/3.6/lib/python3.6/xml/sax/_exceptions.py',
   'PYMODULE'),
  ('xml.sax.xmlreader',
   '/Library/Frameworks/Python.framework/Versions/3.6/lib/python3.6/xml/sax/xmlreader.py',
   'PYMODULE'),
  ('xml.parsers',
   '/Library/Frameworks/Python.framework/Versions/3.6/lib/python3.6/xml/parsers/__init__.py',
   'PYMODULE'),
  ('xml.parsers.expat',
   '/Library/Frameworks/Python.framework/Versions/3.6/lib/python3.6/xml/parsers/expat.py',
   'PYMODULE'),
  ('plistlib',
   '/Library/Frameworks/Python.framework/Versions/3.6/lib/python3.6/plistlib.py',
   'PYMODULE'),
  ('platform',
   '/Library/Frameworks/Python.framework/Versions/3.6/lib/python3.6/platform.py',
   'PYMODULE'),
  ('token',
   '/Library/Frameworks/Python.framework/Versions/3.6/lib/python3.6/token.py',
   'PYMODULE'),
  ('tokenize',
   '/Library/Frameworks/Python.framework/Versions/3.6/lib/python3.6/tokenize.py',
   'PYMODULE'),
  ('urllib.parse',
   '/Library/Frameworks/Python.framework/Versions/3.6/lib/python3.6/urllib/parse.py',
   'PYMODULE'),
  ('tempfile',
   '/Library/Frameworks/Python.framework/Versions/3.6/lib/python3.6/tempfile.py',
   'PYMODULE'),
  ('subprocess',
   '/Library/Frameworks/Python.framework/Versions/3.6/lib/python3.6/subprocess.py',
   'PYMODULE'),
  ('tty',
   '/Library/Frameworks/Python.framework/Versions/3.6/lib/python3.6/tty.py',
   'PYMODULE'),
  ('pydoc_data',
   '/Library/Frameworks/Python.framework/Versions/3.6/lib/python3.6/pydoc_data/__init__.py',
   'PYMODULE'),
  ('pydoc_data.topics',
   '/Library/Frameworks/Python.framework/Versions/3.6/lib/python3.6/pydoc_data/topics.py',
   'PYMODULE'),
  ('textwrap',
   '/Library/Frameworks/Python.framework/Versions/3.6/lib/python3.6/textwrap.py',
   'PYMODULE'),
  ('html.entities',
   '/Library/Frameworks/Python.framework/Versions/3.6/lib/python3.6/html/entities.py',
   'PYMODULE'),
  ('html',
   '/Library/Frameworks/Python.framework/Versions/3.6/lib/python3.6/html/__init__.py',
   'PYMODULE'),
  ('ipaddress',
   '/Library/Frameworks/Python.framework/Versions/3.6/lib/python3.6/ipaddress.py',
   'PYMODULE'),
  ('ssl',
   '/Library/Frameworks/Python.framework/Versions/3.6/lib/python3.6/ssl.py',
   'PYMODULE'),
  ('http.client',
   '/Library/Frameworks/Python.framework/Versions/3.6/lib/python3.6/http/client.py',
   'PYMODULE'),
  ('mimetypes',
   '/Library/Frameworks/Python.framework/Versions/3.6/lib/python3.6/mimetypes.py',
   'PYMODULE'),
  ('socketserver',
   '/Library/Frameworks/Python.framework/Versions/3.6/lib/python3.6/socketserver.py',
   'PYMODULE'),
  ('http',
   '/Library/Frameworks/Python.framework/Versions/3.6/lib/python3.6/http/__init__.py',
   'PYMODULE'),
  ('http.server',
   '/Library/Frameworks/Python.framework/Versions/3.6/lib/python3.6/http/server.py',
   'PYMODULE'),
  ('optparse',
   '/Library/Frameworks/Python.framework/Versions/3.6/lib/python3.6/optparse.py',
   'PYMODULE'),
  ('uu',
   '/Library/Frameworks/Python.framework/Versions/3.6/lib/python3.6/uu.py',
   'PYMODULE'),
  ('quopri',
   '/Library/Frameworks/Python.framework/Versions/3.6/lib/python3.6/quopri.py',
   'PYMODULE'),
  ('email.feedparser',
   '/Library/Frameworks/Python.framework/Versions/3.6/lib/python3.6/email/feedparser.py',
   'PYMODULE'),
  ('email.parser',
   '/Library/Frameworks/Python.framework/Versions/3.6/lib/python3.6/email/parser.py',
   'PYMODULE'),
  ('email',
   '/Library/Frameworks/Python.framework/Versions/3.6/lib/python3.6/email/__init__.py',
   'PYMODULE'),
  ('calendar',
   '/Library/Frameworks/Python.framework/Versions/3.6/lib/python3.6/calendar.py',
   'PYMODULE'),
  ('email._parseaddr',
   '/Library/Frameworks/Python.framework/Versions/3.6/lib/python3.6/email/_parseaddr.py',
   'PYMODULE'),
  ('email.utils',
   '/Library/Frameworks/Python.framework/Versions/3.6/lib/python3.6/email/utils.py',
   'PYMODULE'),
  ('email.errors',
   '/Library/Frameworks/Python.framework/Versions/3.6/lib/python3.6/email/errors.py',
   'PYMODULE'),
  ('email.header',
   '/Library/Frameworks/Python.framework/Versions/3.6/lib/python3.6/email/header.py',
   'PYMODULE'),
  ('email._policybase',
   '/Library/Frameworks/Python.framework/Versions/3.6/lib/python3.6/email/_policybase.py',
   'PYMODULE'),
  ('email.base64mime',
   '/Library/Frameworks/Python.framework/Versions/3.6/lib/python3.6/email/base64mime.py',
   'PYMODULE'),
  ('email.encoders',
   '/Library/Frameworks/Python.framework/Versions/3.6/lib/python3.6/email/encoders.py',
   'PYMODULE'),
  ('email.charset',
   '/Library/Frameworks/Python.framework/Versions/3.6/lib/python3.6/email/charset.py',
   'PYMODULE'),
  ('base64',
   '/Library/Frameworks/Python.framework/Versions/3.6/lib/python3.6/base64.py',
   'PYMODULE'),
  ('email._encoded_words',
   '/Library/Frameworks/Python.framework/Versions/3.6/lib/python3.6/email/_encoded_words.py',
   'PYMODULE'),
  ('hashlib',
   '/Library/Frameworks/Python.framework/Versions/3.6/lib/python3.6/hashlib.py',
   'PYMODULE'),
  ('bisect',
   '/Library/Frameworks/Python.framework/Versions/3.6/lib/python3.6/bisect.py',
   'PYMODULE'),
  ('email.generator',
   '/Library/Frameworks/Python.framework/Versions/3.6/lib/python3.6/email/generator.py',
   'PYMODULE'),
  ('email.iterators',
   '/Library/Frameworks/Python.framework/Versions/3.6/lib/python3.6/email/iterators.py',
   'PYMODULE'),
  ('urllib',
   '/Library/Frameworks/Python.framework/Versions/3.6/lib/python3.6/urllib/__init__.py',
   'PYMODULE'),
  ('email._header_value_parser',
   '/Library/Frameworks/Python.framework/Versions/3.6/lib/python3.6/email/_header_value_parser.py',
   'PYMODULE'),
  ('email.headerregistry',
   '/Library/Frameworks/Python.framework/Versions/3.6/lib/python3.6/email/headerregistry.py',
   'PYMODULE'),
  ('email.quoprimime',
   '/Library/Frameworks/Python.framework/Versions/3.6/lib/python3.6/email/quoprimime.py',
   'PYMODULE'),
  ('email.contentmanager',
   '/Library/Frameworks/Python.framework/Versions/3.6/lib/python3.6/email/contentmanager.py',
   'PYMODULE'),
  ('email.policy',
   '/Library/Frameworks/Python.framework/Versions/3.6/lib/python3.6/email/policy.py',
   'PYMODULE'),
  ('email.message',
   '/Library/Frameworks/Python.framework/Versions/3.6/lib/python3.6/email/message.py',
   'PYMODULE'),
  ('stat',
   '/Library/Frameworks/Python.framework/Versions/3.6/lib/python3.6/stat.py',
   'PYMODULE'),
  ('bz2',
   '/Library/Frameworks/Python.framework/Versions/3.6/lib/python3.6/bz2.py',
   'PYMODULE'),
  ('lzma',
   '/Library/Frameworks/Python.framework/Versions/3.6/lib/python3.6/lzma.py',
   'PYMODULE'),
  ('_compression',
   '/Library/Frameworks/Python.framework/Versions/3.6/lib/python3.6/_compression.py',
   'PYMODULE'),
  ('gzip',
   '/Library/Frameworks/Python.framework/Versions/3.6/lib/python3.6/gzip.py',
   'PYMODULE'),
  ('tarfile',
   '/Library/Frameworks/Python.framework/Versions/3.6/lib/python3.6/tarfile.py',
   'PYMODULE'),
  ('_dummy_thread',
   '/Library/Frameworks/Python.framework/Versions/3.6/lib/python3.6/_dummy_thread.py',
   'PYMODULE'),
  ('dummy_threading',
   '/Library/Frameworks/Python.framework/Versions/3.6/lib/python3.6/dummy_threading.py',
   'PYMODULE'),
  ('py_compile',
   '/Library/Frameworks/Python.framework/Versions/3.6/lib/python3.6/py_compile.py',
   'PYMODULE'),
  ('zipfile',
   '/Library/Frameworks/Python.framework/Versions/3.6/lib/python3.6/zipfile.py',
   'PYMODULE'),
  ('shutil',
   '/Library/Frameworks/Python.framework/Versions/3.6/lib/python3.6/shutil.py',
   'PYMODULE'),
  ('selectors',
   '/Library/Frameworks/Python.framework/Versions/3.6/lib/python3.6/selectors.py',
   'PYMODULE'),
  ('socket',
   '/Library/Frameworks/Python.framework/Versions/3.6/lib/python3.6/socket.py',
   'PYMODULE'),
  ('webbrowser',
   '/Library/Frameworks/Python.framework/Versions/3.6/lib/python3.6/webbrowser.py',
   'PYMODULE'),
  ('pydoc',
   '/Library/Frameworks/Python.framework/Versions/3.6/lib/python3.6/pydoc.py',
   'PYMODULE'),
  ('copy',
   '/Library/Frameworks/Python.framework/Versions/3.6/lib/python3.6/copy.py',
   'PYMODULE'),
  ('struct',
   '/Library/Frameworks/Python.framework/Versions/3.6/lib/python3.6/struct.py',
   'PYMODULE'),
  ('gettext',
   '/Library/Frameworks/Python.framework/Versions/3.6/lib/python3.6/gettext.py',
   'PYMODULE'),
  ('getopt',
   '/Library/Frameworks/Python.framework/Versions/3.6/lib/python3.6/getopt.py',
   'PYMODULE'),
  ('pdb',
   '/Library/Frameworks/Python.framework/Versions/3.6/lib/python3.6/pdb.py',
   'PYMODULE'),
  ('unittest.util',
   '/Library/Frameworks/Python.framework/Versions/3.6/lib/python3.6/unittest/util.py',
   'PYMODULE'),
  ('unittest.result',
   '/Library/Frameworks/Python.framework/Versions/3.6/lib/python3.6/unittest/result.py',
   'PYMODULE'),
  ('string',
   '/Library/Frameworks/Python.framework/Versions/3.6/lib/python3.6/string.py',
   'PYMODULE'),
  ('_threading_local',
   '/Library/Frameworks/Python.framework/Versions/3.6/lib/python3.6/_threading_local.py',
   'PYMODULE'),
  ('threading',
   '/Library/Frameworks/Python.framework/Versions/3.6/lib/python3.6/threading.py',
   'PYMODULE'),
  ('logging',
   '/Library/Frameworks/Python.framework/Versions/3.6/lib/python3.6/logging/__init__.py',
   'PYMODULE'),
  ('pprint',
   '/Library/Frameworks/Python.framework/Versions/3.6/lib/python3.6/pprint.py',
   'PYMODULE'),
  ('contextlib',
   '/Library/Frameworks/Python.framework/Versions/3.6/lib/python3.6/contextlib.py',
   'PYMODULE'),
  ('unittest.case',
   '/Library/Frameworks/Python.framework/Versions/3.6/lib/python3.6/unittest/case.py',
   'PYMODULE'),
  ('unittest.suite',
   '/Library/Frameworks/Python.framework/Versions/3.6/lib/python3.6/unittest/suite.py',
   'PYMODULE'),
  ('fnmatch',
   '/Library/Frameworks/Python.framework/Versions/3.6/lib/python3.6/fnmatch.py',
   'PYMODULE'),
  ('unittest.loader',
   '/Library/Frameworks/Python.framework/Versions/3.6/lib/python3.6/unittest/loader.py',
   'PYMODULE'),
  ('unittest.runner',
   '/Library/Frameworks/Python.framework/Versions/3.6/lib/python3.6/unittest/runner.py',
   'PYMODULE'),
  ('unittest.main',
   '/Library/Frameworks/Python.framework/Versions/3.6/lib/python3.6/unittest/main.py',
   'PYMODULE'),
  ('signal',
   '/Library/Frameworks/Python.framework/Versions/3.6/lib/python3.6/signal.py',
   'PYMODULE'),
  ('unittest.signals',
   '/Library/Frameworks/Python.framework/Versions/3.6/lib/python3.6/unittest/signals.py',
   'PYMODULE'),
  ('unittest',
   '/Library/Frameworks/Python.framework/Versions/3.6/lib/python3.6/unittest/__init__.py',
   'PYMODULE'),
  ('doctest',
   '/Library/Frameworks/Python.framework/Versions/3.6/lib/python3.6/doctest.py',
   'PYMODULE'),
  ('game_ui',
   '/Users/louie.gu/Desktop/IST/Python/PyQtictactoe/src/main/python/game_ui.py',
   'PYMODULE'),
  ('PyQt5.uic',
   '/Users/louie.gu/Desktop/IST/Python/PyQtictactoe/venv/lib/python3.6/site-packages/PyQt5/uic/__init__.py',
   'PYMODULE'),
  ('PyQt5.uic.objcreator',
   '/Users/louie.gu/Desktop/IST/Python/PyQtictactoe/venv/lib/python3.6/site-packages/PyQt5/uic/objcreator.py',
   'PYMODULE'),
  ('PyQt5.uic.exceptions',
   '/Users/louie.gu/Desktop/IST/Python/PyQtictactoe/venv/lib/python3.6/site-packages/PyQt5/uic/exceptions.py',
   'PYMODULE'),
  ('PyQt5.uic.Loader.loader',
   '/Users/louie.gu/Desktop/IST/Python/PyQtictactoe/venv/lib/python3.6/site-packages/PyQt5/uic/Loader/loader.py',
   'PYMODULE'),
  ('PyQt5.uic.Loader',
   '/Users/louie.gu/Desktop/IST/Python/PyQtictactoe/venv/lib/python3.6/site-packages/PyQt5/uic/Loader/__init__.py',
   'PYMODULE'),
  ('PyQt5.uic.Loader.qobjectcreator',
   '/Users/louie.gu/Desktop/IST/Python/PyQtictactoe/venv/lib/python3.6/site-packages/PyQt5/uic/Loader/qobjectcreator.py',
   'PYMODULE'),
  ('PyQt5.uic.uiparser',
   '/Users/louie.gu/Desktop/IST/Python/PyQtictactoe/venv/lib/python3.6/site-packages/PyQt5/uic/uiparser.py',
   'PYMODULE'),
  ('PyQt5.uic.properties',
   '/Users/louie.gu/Desktop/IST/Python/PyQtictactoe/venv/lib/python3.6/site-packages/PyQt5/uic/properties.py',
   'PYMODULE'),
  ('PyQt5.uic.port_v3.ascii_upper',
   '/Users/louie.gu/Desktop/IST/Python/PyQtictactoe/venv/lib/python3.6/site-packages/PyQt5/uic/port_v3/ascii_upper.py',
   'PYMODULE'),
  ('PyQt5.uic.port_v3',
   '/Users/louie.gu/Desktop/IST/Python/PyQtictactoe/venv/lib/python3.6/site-packages/PyQt5/uic/port_v3/__init__.py',
   'PYMODULE'),
  ('PyQt5.uic.icon_cache',
   '/Users/louie.gu/Desktop/IST/Python/PyQtictactoe/venv/lib/python3.6/site-packages/PyQt5/uic/icon_cache.py',
   'PYMODULE'),
  ('xml.etree.ElementTree',
   '/Library/Frameworks/Python.framework/Versions/3.6/lib/python3.6/xml/etree/ElementTree.py',
   'PYMODULE'),
  ('xml.etree.ElementInclude',
   '/Library/Frameworks/Python.framework/Versions/3.6/lib/python3.6/xml/etree/ElementInclude.py',
   'PYMODULE'),
  ('xml.etree.cElementTree',
   '/Library/Frameworks/Python.framework/Versions/3.6/lib/python3.6/xml/etree/cElementTree.py',
   'PYMODULE'),
  ('xml.etree.ElementPath',
   '/Library/Frameworks/Python.framework/Versions/3.6/lib/python3.6/xml/etree/ElementPath.py',
   'PYMODULE'),
  ('xml.etree',
   '/Library/Frameworks/Python.framework/Versions/3.6/lib/python3.6/xml/etree/__init__.py',
   'PYMODULE'),
  ('PyQt5.uic.port_v2.string_io',
   '/Users/louie.gu/Desktop/IST/Python/PyQtictactoe/venv/lib/python3.6/site-packages/PyQt5/uic/port_v2/string_io.py',
   'PYMODULE'),
  ('PyQt5.uic.port_v2',
   '/Users/louie.gu/Desktop/IST/Python/PyQtictactoe/venv/lib/python3.6/site-packages/PyQt5/uic/port_v2/__init__.py',
   'PYMODULE'),
  ('PyQt5.uic.port_v3.string_io',
   '/Users/louie.gu/Desktop/IST/Python/PyQtictactoe/venv/lib/python3.6/site-packages/PyQt5/uic/port_v3/string_io.py',
   'PYMODULE'),
  ('PyQt5.uic.Compiler.compiler',
   '/Users/louie.gu/Desktop/IST/Python/PyQtictactoe/venv/lib/python3.6/site-packages/PyQt5/uic/Compiler/compiler.py',
   'PYMODULE'),
  ('PyQt5.uic.Compiler.qobjectcreator',
   '/Users/louie.gu/Desktop/IST/Python/PyQtictactoe/venv/lib/python3.6/site-packages/PyQt5/uic/Compiler/qobjectcreator.py',
   'PYMODULE'),
  ('PyQt5.uic.port_v2.as_string',
   '/Users/louie.gu/Desktop/IST/Python/PyQtictactoe/venv/lib/python3.6/site-packages/PyQt5/uic/port_v2/as_string.py',
   'PYMODULE'),
  ('PyQt5.uic.port_v3.as_string',
   '/Users/louie.gu/Desktop/IST/Python/PyQtictactoe/venv/lib/python3.6/site-packages/PyQt5/uic/port_v3/as_string.py',
   'PYMODULE'),
  ('PyQt5.uic.Compiler.qtproxies',
   '/Users/louie.gu/Desktop/IST/Python/PyQtictactoe/venv/lib/python3.6/site-packages/PyQt5/uic/Compiler/qtproxies.py',
   'PYMODULE'),
  ('PyQt5.uic.port_v2.proxy_base',
   '/Users/louie.gu/Desktop/IST/Python/PyQtictactoe/venv/lib/python3.6/site-packages/PyQt5/uic/port_v2/proxy_base.py',
   'PYMODULE'),
  ('PyQt5.uic.Compiler.proxy_metaclass',
   '/Users/louie.gu/Desktop/IST/Python/PyQtictactoe/venv/lib/python3.6/site-packages/PyQt5/uic/Compiler/proxy_metaclass.py',
   'PYMODULE'),
  ('PyQt5.uic.port_v3.proxy_base',
   '/Users/louie.gu/Desktop/IST/Python/PyQtictactoe/venv/lib/python3.6/site-packages/PyQt5/uic/port_v3/proxy_base.py',
   'PYMODULE'),
  ('PyQt5.uic.Compiler.misc',
   '/Users/louie.gu/Desktop/IST/Python/PyQtictactoe/venv/lib/python3.6/site-packages/PyQt5/uic/Compiler/misc.py',
   'PYMODULE'),
  ('PyQt5.uic.Compiler.indenter',
   '/Users/louie.gu/Desktop/IST/Python/PyQtictactoe/venv/lib/python3.6/site-packages/PyQt5/uic/Compiler/indenter.py',
   'PYMODULE'),
  ('PyQt5.uic.Compiler',
   '/Users/louie.gu/Desktop/IST/Python/PyQtictactoe/venv/lib/python3.6/site-packages/PyQt5/uic/Compiler/__init__.py',
   'PYMODULE'),
  ('PyQt5',
   '/Users/louie.gu/Desktop/IST/Python/PyQtictactoe/venv/lib/python3.6/site-packages/PyQt5/__init__.py',
   'PYMODULE'),
  ('fbs_runtime.application_context.PyQt5',
   '/Users/louie.gu/Desktop/IST/Python/PyQtictactoe/venv/lib/python3.6/site-packages/fbs_runtime/application_context/PyQt5.py',
   'PYMODULE'),
  ('fbs_runtime.application_context',
   '/Users/louie.gu/Desktop/IST/Python/PyQtictactoe/venv/lib/python3.6/site-packages/fbs_runtime/application_context/__init__.py',
   'PYMODULE'),
  ('fbs_runtime.licensing',
   '/Users/louie.gu/Desktop/IST/Python/PyQtictactoe/venv/lib/python3.6/site-packages/fbs_runtime/licensing.py',
   'PYMODULE'),
  ('json',
   '/Library/Frameworks/Python.framework/Versions/3.6/lib/python3.6/json/__init__.py',
   'PYMODULE'),
  ('json.encoder',
   '/Library/Frameworks/Python.framework/Versions/3.6/lib/python3.6/json/encoder.py',
   'PYMODULE'),
  ('json.decoder',
   '/Library/Frameworks/Python.framework/Versions/3.6/lib/python3.6/json/decoder.py',
   'PYMODULE'),
  ('json.scanner',
   '/Library/Frameworks/Python.framework/Versions/3.6/lib/python3.6/json/scanner.py',
   'PYMODULE'),
  ('fbs_runtime.platform',
   '/Users/louie.gu/Desktop/IST/Python/PyQtictactoe/venv/lib/python3.6/site-packages/fbs_runtime/platform.py',
   'PYMODULE'),
  ('fbs_runtime.excepthook',
   '/Users/louie.gu/Desktop/IST/Python/PyQtictactoe/venv/lib/python3.6/site-packages/fbs_runtime/excepthook/__init__.py',
   'PYMODULE'),
  ('fbs_runtime._signal',
   '/Users/louie.gu/Desktop/IST/Python/PyQtictactoe/venv/lib/python3.6/site-packages/fbs_runtime/_signal.py',
   'PYMODULE'),
  ('fbs_runtime._resources',
   '/Users/louie.gu/Desktop/IST/Python/PyQtictactoe/venv/lib/python3.6/site-packages/fbs_runtime/_resources.py',
   'PYMODULE'),
  ('fbs_runtime._source',
   '/Users/louie.gu/Desktop/IST/Python/PyQtictactoe/venv/lib/python3.6/site-packages/fbs_runtime/_source.py',
   'PYMODULE'),
  ('pathlib',
   '/Library/Frameworks/Python.framework/Versions/3.6/lib/python3.6/pathlib.py',
   'PYMODULE'),
  ('fbs_runtime._settings',
   '/Users/louie.gu/Desktop/IST/Python/PyQtictactoe/venv/lib/python3.6/site-packages/fbs_runtime/_settings.py',
   'PYMODULE'),
  ('fbs_runtime._fbs',
   '/Users/louie.gu/Desktop/IST/Python/PyQtictactoe/venv/lib/python3.6/site-packages/fbs_runtime/_fbs.py',
   'PYMODULE'),
  ('fbs_runtime._frozen',
   '/Users/louie.gu/Desktop/IST/Python/PyQtictactoe/venv/lib/python3.6/site-packages/fbs_runtime/_frozen.py',
   'PYMODULE'),
  ('fbs_runtime._state',
   '/Users/louie.gu/Desktop/IST/Python/PyQtictactoe/venv/lib/python3.6/site-packages/fbs_runtime/_state.py',
   'PYMODULE'),
  ('fbs_runtime',
   '/Users/louie.gu/Desktop/IST/Python/PyQtictactoe/venv/lib/python3.6/site-packages/fbs_runtime/__init__.py',
   'PYMODULE'),
  ('qdarkstyle',
   '/Users/louie.gu/Desktop/IST/Python/PyQtictactoe/venv/lib/python3.6/site-packages/qdarkstyle/__init__.py',
   'PYMODULE'),
  ('qdarkstyle.style_rc',
   '/Users/louie.gu/Desktop/IST/Python/PyQtictactoe/venv/lib/python3.6/site-packages/qdarkstyle/style_rc.py',
   'PYMODULE'),
  ('qtpy',
   '/Users/louie.gu/Desktop/IST/Python/PyQtictactoe/venv/lib/python3.6/site-packages/qtpy/__init__.py',
   'PYMODULE'),
  ('qtpy._version',
   '/Users/louie.gu/Desktop/IST/Python/PyQtictactoe/venv/lib/python3.6/site-packages/qtpy/_version.py',
   'PYMODULE'),
  ('distutils.version',
   '/Library/Frameworks/Python.framework/Versions/3.6/lib/python3.6/distutils/version.py',
   'PYMODULE'),
  ('distutils',
   '/Library/Frameworks/Python.framework/Versions/3.6/lib/python3.6/distutils/__init__.py',
   'PYMODULE'),
  ('qtpy.QtGui',
   '/Users/louie.gu/Desktop/IST/Python/PyQtictactoe/venv/lib/python3.6/site-packages/qtpy/QtGui.py',
   'PYMODULE'),
  ('qtpy.QtCore',
   '/Users/louie.gu/Desktop/IST/Python/PyQtictactoe/venv/lib/python3.6/site-packages/qtpy/QtCore.py',
   'PYMODULE'),
  ('qdarkstyle.palette',
   '/Users/louie.gu/Desktop/IST/Python/PyQtictactoe/venv/lib/python3.6/site-packages/qdarkstyle/palette.py',
   'PYMODULE'),
  ('minimax',
   '/Users/louie.gu/Desktop/IST/Python/PyQtictactoe/src/main/python/minimax.py',
   'PYMODULE'),
  ('random',
   '/Library/Frameworks/Python.framework/Versions/3.6/lib/python3.6/random.py',
   'PYMODULE'),
  ('game_icons',
   '/Users/louie.gu/Desktop/IST/Python/PyQtictactoe/src/main/python/game_icons.py',
   'PYMODULE')])
